"","str","strWORep","force","speed","amplitude","Disgust","Angry","Sad","Happy","Fear","outlier","Interest","IDK","Calm","Angry.1"
"1","V-A+F+Ts","V-A+F+","1","3.8","20",0,0,1,0,0,1,0,0,0,0
"2","V+A+F+Tp","V+A+F+","1","16","20",0,0,0,0,0,1,0,0,1,0
"3","V+A+F-Ts","V+A+F-","0","16","20",0,0,0,1,0,1,0,0,0,0
"4","V-A-F+Tp","V-A-F+","1","3.8","5",0,0,0,0,1,1,0,0,0,0
"5","V+A+F-T0","V+A+F-","0","16","20",1,0,0,0,0,1,0,0,0,0
"6","V-A+F+Tp","V-A+F+","1","3.8","20",0,1,0,0,0,1,0,0,0,1
"7","V+A-F-Tp","V+A-F-","0","16","5",0,0,0,0,0,1,1,0,0,0
"8","V-A+F-Tp","V-A+F-","0","3.8","20",0,0,1,0,0,1,0,0,0,0
"9","V+A-F-T0","V+A-F-","0","16","5",0,0,0,0,0,1,0,0,1,0
"10","V-A+F+T0","V-A+F+","1","3.8","20",1,0,0,0,0,1,0,0,0,0
"11","V+A+F-T0","V+A+F-","0","16","20",0,0,0,0,0,1,1,0,0,0
"12","V-A+F-Tp","V-A+F-","0","3.8","20",0,0,1,0,0,1,0,0,0,0
"13","V-A+F-T0","V-A+F-","0","3.8","20",1,0,0,0,0,1,0,0,0,0
"14","V+A-F-Tp","V+A-F-","0","16","5",0,0,0,0,0,1,1,0,0,0
"15","V+A+F+T0","V+A+F+","1","16","20",0,0,0,0,0,1,0,0,0,0
"16","V+A-F-Ts","V+A-F-","0","16","5",0,0,0,1,0,1,0,0,0,0
"17","V-A-F+Ts","V-A-F+","1","3.8","5",0,1,0,0,0,1,0,0,0,1
"18","V+A+F-Ts","V+A+F-","0","16","20",0,0,0,1,0,1,0,0,0,0
"19","V+A-F+T0","V+A-F+","1","16","5",0,0,0,0,0,1,0,0,0,0
"20","V-A+F-T0","V-A+F-","0","3.8","20",0,0,0,0,1,1,0,0,0,0
"21","V-A+F+Ts","V-A+F+","1","3.8","20",0,0,1,0,0,1,0,0,0,0
"22","V+A+F+Tp","V+A+F+","1","16","20",0,0,0,1,0,1,0,0,0,0
"23","V+A-F-T0","V+A-F-","0","16","5",0,0,0,0,0,1,1,0,0,0
"24","V+A+F+Tp","V+A+F+","1","16","20",0,1,0,0,0,1,0,0,0,1
"25","V+A-F-Ts","V+A-F-","0","16","5",0,0,0,1,0,1,0,0,0,0
"26","V-A-F-Ts","V-A-F-","0","3.8","5",0,0,1,0,0,1,0,0,0,0
"27","V-A+F-Ts","V-A+F-","0","3.8","20",0,0,1,0,0,1,0,0,0,0
"28","V-A-F-Ts","V-A-F-","0","3.8","5",0,1,0,0,0,1,0,0,0,1
"29","V-A-F+Tp","V-A-F+","1","3.8","5",0,1,0,0,0,1,0,0,0,1
"30","V-A+F-T0","V-A+F-","0","3.8","20",1,0,0,0,0,1,0,0,0,0
"31","V-A-F-T0","V-A-F-","0","3.8","5",0,1,0,0,0,1,0,0,0,1
"32","V-A+F+T0","V-A+F+","1","3.8","20",0,1,0,0,0,1,0,0,0,1
"33","V-A-F+T0","V-A-F+","1","3.8","5",0,1,0,0,0,1,0,0,0,1
"34","V-A+F+Tp","V-A+F+","1","3.8","20",0,0,1,0,0,1,0,0,0,0
"35","V-A+F+T0","V-A+F+","1","3.8","20",1,0,0,0,0,1,0,0,0,0
"36","V+A-F-Tp","V+A-F-","0","16","5",0,0,0,0,0,1,1,0,0,0
"37","V-A-F-Tp","V-A-F-","0","3.8","5",0,1,0,0,0,1,0,0,0,1
"38","V-A+F-Ts","V-A+F-","0","3.8","20",0,0,1,0,0,1,0,0,0,0
"39","V+A+F+Ts","V+A+F+","1","16","20",0,0,0,0,0,1,0,0,0,0
"40","V+A-F+Tp","V+A-F+","1","16","5",0,0,0,0,0,1,1,0,0,0
"41","V-A-F-Tp","V-A-F-","0","3.8","5",0,1,0,0,0,1,0,0,0,1
"42","V+A-F+T0","V+A-F+","1","16","5",0,0,0,0,0,1,0,0,1,0
"43","V+A+F-T0","V+A+F-","0","16","20",0,0,0,0,0,1,0,0,1,0
"44","V+A+F-Tp","V+A+F-","0","16","20",0,0,0,1,0,1,0,0,0,0
"45","V+A+F-Ts","V+A+F-","0","16","20",0,0,0,1,0,1,0,0,0,0
"46","V+A-F+Ts","V+A-F+","1","16","5",0,0,0,0,0,1,0,0,0,0
"47","V-A+F+Ts","V-A+F+","1","3.8","20",0,0,1,0,0,1,0,0,0,0
"48","V-A-F+T0","V-A-F+","1","3.8","5",0,0,0,0,0,1,0,0,1,0
"49","V+A+F+Ts","V+A+F+","1","16","20",0,0,0,1,0,0,0,0,0,0
"50","V+A+F+Ts","V+A+F+","1","16","20",0,0,0,1,0,1,0,0,0,0
"51","V+A-F+Ts","V+A-F+","1","16","5",0,0,0,0,0,1,0,0,0,0
"52","V-A+F-Ts","V-A+F-","0","3.8","20",0,0,1,0,0,1,0,0,0,0
"53","V+A+F-Tp","V+A+F-","0","16","20",0,0,0,1,0,1,0,0,0,0
"54","V+A+F-Tp","V+A+F-","0","16","20",0,0,0,1,0,1,0,0,0,0
"55","V-A-F+Ts","V-A-F+","1","3.8","5",0,1,0,0,0,1,0,0,0,1
"56","V-A-F-Tp","V-A-F-","0","3.8","5",0,1,0,0,0,1,0,0,0,1
"57","V-A-F-Ts","V-A-F-","0","3.8","5",0,1,0,0,0,1,0,0,0,1
"58","V+A-F+T0","V+A-F+","1","16","5",0,0,0,0,0,1,0,0,0,0
"59","V-A-F-T0","V-A-F-","0","3.8","5",0,1,0,0,0,1,0,0,0,1
"60","V+A+F+T0","V+A+F+","1","16","20",0,0,0,0,0,1,0,0,0,0
"61","V-A-F+Ts","V-A-F+","1","3.8","5",1,0,0,0,0,1,0,0,0,0
"62","V+A-F-T0","V+A-F-","0","16","5",0,0,0,0,0,1,0,0,1,0
"63","V+A-F+Tp","V+A-F+","1","16","5",0,0,0,0,0,1,1,0,0,0
"64","V+A-F+Tp","V+A-F+","1","16","5",0,0,0,0,0,1,1,0,0,0
"65","V-A-F+Tp","V-A-F+","1","3.8","5",0,0,0,0,0,1,1,0,0,0
"66","V+A+F+T0","V+A+F+","1","16","20",0,0,0,0,0,1,0,0,1,0
"67","V+A-F+Ts","V+A-F+","1","16","5",0,0,0,0,0,1,0,0,0,0
"68","V-A-F-T0","V-A-F-","0","3.8","5",0,0,0,0,0,1,0,0,1,0
"69","V+A-F-Ts","V+A-F-","0","16","5",0,1,0,0,0,1,0,0,0,1
"70","V-A-F+T0","V-A-F+","1","3.8","5",0,0,0,0,0,1,0,0,1,0
"71","V-A+F-Tp","V-A+F-","0","3.8","20",0,0,1,0,0,1,0,0,0,0
"72","V-A+F+Tp","V-A+F+","1","3.8","20",0,0,1,0,0,1,0,0,0,0
"73","V-A-F-T0","V-A-F-","0","3.8","5",0,1,0,0,0,1,0,0,0,1
"74","V-A-F+Ts","V-A-F+","1","3.8","5",0,1,0,0,0,1,0,0,0,1
"75","V+A-F+T0","V+A-F+","1","16","5",0,0,0,0,0,1,0,1,0,0
"76","V-A+F-Ts","V-A+F-","0","3.8","20",1,0,0,0,0,1,0,0,0,0
"77","V-A+F+Tp","V-A+F+","1","3.8","20",0,1,0,0,0,1,0,0,0,1
"78","V-A-F-Ts","V-A-F-","0","3.8","5",0,1,0,0,0,1,0,0,0,1
"79","V-A+F+T0","V-A+F+","1","3.8","20",0,1,0,0,0,1,0,0,0,1
"80","V+A+F+Ts","V+A+F+","1","16","20",0,0,1,0,0,1,0,0,0,0
"81","V-A-F+Tp","V-A-F+","1","3.8","5",0,1,0,0,0,1,0,0,0,1
"82","V-A+F-Tp","V-A+F-","0","3.8","20",0,1,0,0,0,1,0,0,0,1
"83","V+A-F+Tp","V+A-F+","1","16","5",0,1,0,0,0,1,0,0,0,1
"84","V+A+F+Ts","V+A+F+","1","16","20",0,0,0,0,0,1,0,1,0,0
"85","V-A+F+Ts","V-A+F+","1","3.8","20",1,0,0,0,0,1,0,0,0,0
"86","V-A-F+Tp","V-A-F+","1","3.8","5",0,1,0,0,0,1,0,0,0,1
"87","V+A+F-Ts","V+A+F-","0","16","20",0,0,0,1,0,1,0,0,0,0
"88","V+A+F-T0","V+A+F-","0","16","20",0,0,0,1,0,1,0,0,0,0
"89","V-A-F-Tp","V-A-F-","0","3.8","5",0,1,0,0,0,1,0,0,0,1
"90","V+A+F+Ts","V+A+F+","1","16","20",0,1,0,0,0,1,0,0,0,1
"91","V-A-F-Ts","V-A-F-","0","3.8","5",0,0,0,0,0,1,0,1,0,0
"92","V+A+F+T0","V+A+F+","1","16","20",0,1,0,0,0,1,0,0,0,1
"93","V-A-F+T0","V-A-F+","1","3.8","5",0,1,0,0,0,1,0,0,0,1
"94","V+A-F-Tp","V+A-F-","0","16","5",0,1,0,0,0,1,0,0,0,1
"95","V+A-F+Tp","V+A-F+","1","16","5",0,1,0,0,0,1,0,0,0,1
"96","V+A+F-Tp","V+A+F-","0","16","20",0,1,0,0,0,1,0,0,0,1
"97","V-A+F+Ts","V-A+F+","1","3.8","20",1,0,0,0,0,1,0,0,0,0
"98","V+A-F+T0","V+A-F+","1","16","5",0,1,0,0,0,1,0,0,0,1
"99","V+A+F+T0","V+A+F+","1","16","20",0,0,0,1,0,1,0,0,0,0
"100","V+A-F+Ts","V+A-F+","1","16","5",0,1,0,0,0,1,0,0,0,1
"101","V+A-F+Ts","V+A-F+","1","16","5",0,1,0,0,0,1,0,0,0,1
"102","V+A-F-T0","V+A-F-","0","16","5",0,1,0,0,0,1,0,0,0,1
"103","V+A-F-T0","V+A-F-","0","16","5",0,1,0,0,0,1,0,0,0,1
"104","V+A+F-Ts","V+A+F-","0","16","20",0,1,0,0,0,1,0,0,0,1
"105","V-A-F-Tp","V-A-F-","0","3.8","5",0,1,0,0,0,1,0,0,0,1
"106","V-A-F+T0","V-A-F+","1","3.8","5",0,1,0,0,0,1,0,0,0,1
"107","V-A+F-Tp","V-A+F-","0","3.8","20",0,1,0,0,0,1,0,0,0,1
"108","V+A+F+Tp","V+A+F+","1","16","20",0,0,0,0,0,1,0,0,0,0
"109","V+A-F+Ts","V+A-F+","1","16","5",0,1,0,0,0,1,0,0,0,1
"110","V+A+F-T0","V+A+F-","0","16","20",0,1,0,0,0,1,0,0,0,1
"111","V-A-F+T0","V-A-F+","1","3.8","5",0,0,0,0,0,1,0,1,0,0
"112","V+A+F+Tp","V+A+F+","1","16","20",0,1,0,0,0,1,0,0,0,1
"113","V+A-F+Tp","V+A-F+","1","16","5",0,1,0,0,0,1,0,0,0,1
"114","V-A-F-Tp","V-A-F-","0","3.8","5",0,1,0,0,0,1,0,0,0,1
"115","V-A+F-Ts","V-A+F-","0","3.8","20",1,0,0,0,0,1,0,0,0,0
"116","V-A+F+Tp","V-A+F+","1","3.8","20",0,1,0,0,0,1,0,0,0,1
"117","V+A-F-T0","V+A-F-","0","16","5",0,1,0,0,0,1,0,0,0,1
"118","V-A+F+T0","V-A+F+","1","3.8","20",0,1,0,0,0,1,0,0,0,1
"119","V-A-F-T0","V-A-F-","0","3.8","5",0,1,0,0,0,1,0,0,0,1
"120","V-A+F+Tp","V-A+F+","1","3.8","20",1,0,0,0,0,1,0,0,0,0
"121","V+A-F-Tp","V+A-F-","0","16","5",0,1,0,0,0,1,0,0,0,1
"122","V+A-F-Tp","V+A-F-","0","16","5",0,1,0,0,0,1,0,0,0,1
"123","V-A-F+Tp","V-A-F+","1","3.8","5",0,1,0,0,0,1,0,0,0,1
"124","V-A-F+Ts","V-A-F+","1","3.8","5",0,1,0,0,0,1,0,0,0,1
"125","V-A+F-Tp","V-A+F-","0","3.8","20",1,0,0,0,0,1,0,0,0,0
"126","V+A+F-Tp","V+A+F-","0","16","20",0,1,0,0,0,1,0,0,0,1
"127","V-A-F-Ts","V-A-F-","0","3.8","5",0,1,0,0,0,1,0,0,0,1
"128","V-A-F+Ts","V-A-F+","1","3.8","5",0,1,0,0,0,1,0,0,0,1
"129","V+A-F-Ts","V+A-F-","0","16","5",0,1,0,0,0,1,0,0,0,1
"130","V-A+F+T0","V-A+F+","1","3.8","20",1,0,0,0,0,1,0,0,0,0
"131","V-A+F-Ts","V-A+F-","0","3.8","20",1,0,0,0,0,1,0,0,0,0
"132","V+A+F-T0","V+A+F-","0","16","20",0,1,0,0,0,1,0,0,0,1
"133","V-A+F-T0","V-A+F-","0","3.8","20",0,1,0,0,0,1,0,0,0,1
"134","V+A-F-Ts","V+A-F-","0","16","5",0,0,0,0,0,1,0,1,0,0
"135","V+A+F+Tp","V+A+F+","1","16","20",0,1,0,0,0,1,0,0,0,1
"136","V-A+F-T0","V-A+F-","0","3.8","20",0,1,0,0,0,1,0,0,0,1
"137","V-A+F+Ts","V-A+F+","1","3.8","20",1,0,0,0,0,1,0,0,0,0
"138","V+A+F+T0","V+A+F+","1","16","20",0,1,0,0,0,1,0,0,0,1
"139","V+A+F-Ts","V+A+F-","0","16","20",0,1,0,0,0,1,0,0,0,1
"140","V+A-F+T0","V+A-F+","1","16","5",0,0,0,0,0,1,0,0,1,0
"141","V+A-F-Ts","V+A-F-","0","16","5",0,1,0,0,0,1,0,0,0,1
"142","V-A-F-T0","V-A-F-","0","3.8","5",0,1,0,0,0,1,0,0,0,1
"143","V+A+F-Tp","V+A+F-","0","16","20",0,1,0,0,0,1,0,0,0,1
"144","V-A+F-T0","V-A+F-","0","3.8","20",1,0,0,0,0,1,0,0,0,0
"145","V+A+F-Tp","V+A+F-","0","16","20",1,0,0,0,0,1,0,0,0,0
"146","V+A-F-Tp","V+A-F-","0","16","5",0,0,0,0,0,1,1,0,0,0
"147","V-A+F+Ts","V-A+F+","1","3.8","20",0,0,0,0,1,1,0,0,0,0
"148","V+A+F-Ts","V+A+F-","0","16","20",0,0,0,1,0,1,0,0,0,0
"149","V-A+F-Ts","V-A+F-","0","3.8","20",0,0,0,0,1,1,0,0,0,0
"150","V+A-F+T0","V+A-F+","1","16","5",0,0,0,0,0,1,0,0,0,0
"151","V-A-F+Ts","V-A-F+","1","3.8","5",1,0,0,0,0,1,0,0,0,0
"152","V+A-F+Ts","V+A-F+","1","16","5",0,0,0,0,0,1,0,0,0,0
"153","V+A+F+Ts","V+A+F+","1","16","20",1,0,0,0,0,1,0,0,0,0
"154","V-A+F-Ts","V-A+F-","0","3.8","20",0,0,0,0,1,1,0,0,0,0
"155","V-A-F-T0","V-A-F-","0","3.8","5",0,0,0,0,0,1,0,1,0,0
"156","V-A+F-Tp","V-A+F-","0","3.8","20",0,0,1,0,0,1,0,0,0,0
"157","V-A-F-Tp","V-A-F-","0","3.8","5",0,0,1,0,0,1,0,0,0,0
"158","V+A-F+Tp","V+A-F+","1","16","5",0,0,0,0,0,1,0,1,0,0
"159","V+A-F+T0","V+A-F+","1","16","5",0,0,0,0,0,1,0,0,1,0
"160","V+A-F-Tp","V+A-F-","0","16","5",0,0,0,0,0,1,1,0,0,0
"161","V+A+F-Tp","V+A+F-","0","16","20",0,0,0,0,0,1,0,0,0,0
"162","V+A+F-Tp","V+A+F-","0","16","20",0,0,0,0,0,1,1,0,0,0
"163","V+A+F-T0","V+A+F-","0","16","20",0,0,0,0,0,1,1,0,0,0
"164","V-A-F+Tp","V-A-F+","1","3.8","5",1,0,0,0,0,1,0,0,0,0
"165","V-A+F-Tp","V-A+F-","0","3.8","20",0,0,0,0,0,1,1,0,0,0
"166","V+A-F+Ts","V+A-F+","1","16","5",0,1,0,0,0,1,0,0,0,1
"167","V+A+F+Tp","V+A+F+","1","16","20",0,0,0,0,0,1,1,0,0,0
"168","V-A-F+Tp","V-A-F+","1","3.8","5",1,0,0,0,0,1,0,0,0,0
"169","V+A+F+Ts","V+A+F+","1","16","20",0,1,0,0,0,1,0,0,0,1
"170","V+A-F-T0","V+A-F-","0","16","5",0,0,0,0,0,1,0,0,1,0
"171","V+A+F-T0","V+A+F-","0","16","20",1,0,0,0,0,1,0,0,0,0
"172","V+A-F-Ts","V+A-F-","0","16","5",0,0,0,1,0,1,0,0,0,0
"173","V-A-F+T0","V-A-F+","1","3.8","5",0,0,0,0,0,1,0,0,1,0
"174","V+A+F+T0","V+A+F+","1","16","20",0,0,0,0,0,1,0,0,0,0
"175","V-A+F+Tp","V-A+F+","1","3.8","20",1,0,0,0,0,1,0,0,0,0
"176","V-A+F+T0","V-A+F+","1","3.8","20",0,0,0,0,1,1,0,0,0,0
"177","V-A-F-Ts","V-A-F-","0","3.8","5",0,0,0,0,0,1,1,0,0,0
"178","V+A-F-T0","V+A-F-","0","16","5",0,0,0,0,0,1,0,0,1,0
"179","V-A-F+Tp","V-A-F+","1","3.8","5",0,0,1,0,0,1,0,0,0,0
"180","V-A-F+Ts","V-A-F+","1","3.8","5",0,0,0,0,0,1,1,0,0,0
"181","V+A-F-Ts","V+A-F-","0","16","5",0,0,0,1,0,1,0,0,0,0
"182","V-A+F+T0","V-A+F+","1","3.8","20",0,0,0,0,0,1,1,0,0,0
"183","V+A+F+Ts","V+A+F+","1","16","20",0,0,0,1,0,1,0,0,0,0
"184","V-A+F-T0","V-A+F-","0","3.8","20",0,0,0,0,1,1,0,0,0,0
"185","V-A-F-T0","V-A-F-","0","3.8","5",0,0,0,0,0,1,0,0,1,0
"186","V-A+F+Tp","V-A+F+","1","3.8","20",0,0,0,0,1,1,0,0,0,0
"187","V+A+F+Tp","V+A+F+","1","16","20",0,0,0,0,0,1,0,1,0,0
"188","V-A+F-Tp","V-A+F-","0","3.8","20",0,1,0,0,0,1,0,0,0,1
"189","V-A-F+T0","V-A-F+","1","3.8","5",0,0,0,0,0,1,0,0,1,0
"190","V-A+F-Ts","V-A+F-","0","3.8","20",0,1,0,0,0,1,0,0,0,1
"191","V+A-F-Tp","V+A-F-","0","16","5",0,0,0,0,0,1,0,0,1,0
"192","V+A-F-Ts","V+A-F-","0","16","5",0,0,0,1,0,1,0,0,0,0
"193","V-A+F+Ts","V-A+F+","1","3.8","20",0,0,0,0,1,1,0,0,0,0
"194","V-A-F-Ts","V-A-F-","0","3.8","5",0,1,0,0,0,1,0,0,0,1
"195","V+A+F-Ts","V+A+F-","0","16","20",1,0,0,0,0,1,0,0,0,0
"196","V+A-F+Tp","V+A-F+","1","16","5",0,0,0,0,0,1,0,0,0,0
"197","V-A-F-T0","V-A-F-","0","3.8","5",0,0,0,0,0,1,1,0,0,0
"198","V-A+F-T0","V-A+F-","0","3.8","20",0,0,0,0,1,1,0,0,0,0
"199","V+A+F+T0","V+A+F+","1","16","20",0,0,0,0,0,1,0,0,0,0
"200","V+A-F+Tp","V+A-F+","1","16","5",0,0,0,1,0,1,0,0,0,0
"201","V-A+F+Tp","V-A+F+","1","3.8","20",0,1,0,0,0,1,0,0,0,1
"202","V-A+F+Ts","V-A+F+","1","3.8","20",0,0,0,0,1,1,0,0,0,0
"203","V-A-F-Ts","V-A-F-","0","3.8","5",0,0,1,0,0,1,0,0,0,0
"204","V-A-F-Tp","V-A-F-","0","3.8","5",0,1,0,0,0,1,0,0,0,1
"205","V+A+F-Ts","V+A+F-","0","16","20",0,0,0,1,0,1,0,0,0,0
"206","V-A-F+Ts","V-A-F+","1","3.8","5",0,1,0,0,0,1,0,0,0,1
"207","V+A-F+Ts","V+A-F+","1","16","5",0,0,0,1,0,1,0,0,0,0
"208","V+A-F+T0","V+A-F+","1","16","5",0,0,0,0,0,1,0,0,1,0
"209","V+A-F-T0","V+A-F-","0","16","5",0,0,0,0,0,1,0,0,1,0
"210","V+A+F+Tp","V+A+F+","1","16","20",1,0,0,0,0,1,0,0,0,0
"211","V+A+F+T0","V+A+F+","1","16","20",0,0,0,0,0,1,0,0,0,0
"212","V-A+F+T0","V-A+F+","1","3.8","20",0,0,0,0,0,1,0,0,1,0
"213","V+A+F-T0","V+A+F-","0","16","20",0,0,0,1,0,1,0,0,0,0
"214","V-A-F-Tp","V-A-F-","0","3.8","5",1,0,0,0,0,1,0,0,0,0
"215","V-A-F+T0","V-A-F+","1","3.8","5",0,0,0,0,0,1,0,0,0,0
"216","V-A+F-T0","V-A+F-","0","3.8","20",0,0,0,0,1,1,0,0,0,0
"217","V+A+F-Tp","V+A+F-","0","16","20",0,1,0,0,0,1,0,0,0,1
"218","V+A-F-T0","V+A-F-","0","16","5",0,0,0,0,0,1,0,0,1,0
"219","V+A+F+Ts","V+A+F+","1","16","20",0,0,0,0,0,1,0,0,0,0
"220","V-A-F-T0","V-A-F-","0","3.8","5",0,1,0,0,0,1,0,0,0,1
"221","V-A-F+Ts","V-A-F+","1","3.8","5",0,0,0,0,0,1,0,0,1,0
"222","V+A-F+Tp","V+A-F+","1","16","5",0,0,0,0,1,1,0,0,0,0
"223","V+A-F+Ts","V+A-F+","1","16","5",0,0,0,0,0,1,0,0,0,0
"224","V-A-F+Ts","V-A-F+","1","3.8","5",0,0,0,0,0,1,0,0,1,0
"225","V-A-F-Tp","V-A-F-","0","3.8","5",0,1,0,0,0,1,0,0,0,1
"226","V+A-F+Tp","V+A-F+","1","16","5",0,0,0,0,0,1,0,0,0,0
"227","V+A+F+T0","V+A+F+","1","16","20",0,0,0,0,0,1,0,0,1,0
"228","V-A+F-Ts","V-A+F-","0","3.8","20",0,0,0,1,0,1,0,0,0,0
"229","V-A-F+T0","V-A-F+","1","3.8","5",0,0,0,0,0,1,0,0,0,0
"230","V-A-F+Tp","V-A-F+","1","3.8","5",0,0,0,0,0,1,0,0,0,0
"231","V+A-F+T0","V+A-F+","1","16","5",0,0,0,0,0,1,0,0,0,0
"232","V-A+F-Tp","V-A+F-","0","3.8","20",0,1,0,0,0,1,0,0,0,1
"233","V-A+F+T0","V-A+F+","1","3.8","20",0,0,0,0,0,1,0,0,1,0
"234","V+A-F+T0","V+A-F+","1","16","5",0,0,0,0,0,1,0,0,1,0
"235","V-A+F+Tp","V-A+F+","1","3.8","20",0,0,0,0,0,1,0,0,1,0
"236","V+A-F+Ts","V+A-F+","1","16","5",0,0,0,0,0,1,0,0,0,0
"237","V+A-F-Tp","V+A-F-","0","16","5",0,0,0,0,0,1,0,0,1,0
"238","V-A+F+Tp","V-A+F+","1","3.8","20",0,0,0,0,0,1,0,0,0,0
"239","V+A-F-T0","V+A-F-","0","16","5",0,1,0,0,0,1,0,0,0,1
"240","V-A+F+Ts","V-A+F+","1","3.8","20",0,0,0,0,0,1,0,0,1,0
"241","V+A-F-Tp","V+A-F-","0","16","5",0,1,0,0,0,1,0,0,0,1
"242","V-A-F+T0","V-A-F+","1","3.8","5",0,0,0,0,0,1,0,0,1,0
"243","V+A+F-Ts","V+A+F-","0","16","20",0,0,0,0,0,1,0,0,1,0
"244","V+A+F-T0","V+A+F-","0","16","20",0,0,0,0,0,1,0,0,1,0
"245","V+A+F-T0","V+A+F-","0","16","20",0,0,0,0,0,1,0,0,1,0
"246","V+A-F-Ts","V+A-F-","0","16","5",0,0,0,0,0,1,0,0,0,0
"247","V-A+F+Ts","V-A+F+","1","3.8","20",0,0,0,0,1,1,0,0,0,0
"248","V+A+F+T0","V+A+F+","1","16","20",0,0,0,0,0,1,0,0,1,0
"249","V+A-F-Ts","V+A-F-","0","16","5",0,0,0,0,0,1,0,0,0,0
"250","V-A+F-Ts","V-A+F-","0","3.8","20",0,1,0,0,0,1,0,0,0,1
"251","V+A-F+T0","V+A-F+","1","16","5",0,1,0,0,0,1,0,0,0,1
"252","V-A-F+Tp","V-A-F+","1","3.8","5",0,0,0,0,0,1,0,0,1,0
"253","V-A-F-Tp","V-A-F-","0","3.8","5",0,1,0,0,0,1,0,0,0,1
"254","V-A-F-Ts","V-A-F-","0","3.8","5",0,0,0,0,0,1,0,0,1,0
"255","V+A+F+Tp","V+A+F+","1","16","20",0,0,0,0,0,1,0,0,0,0
"256","V-A+F-Ts","V-A+F-","0","3.8","20",0,0,0,0,0,1,0,0,1,0
"257","V+A+F+Ts","V+A+F+","1","16","20",0,0,0,0,0,1,0,0,0,0
"258","V+A+F-Ts","V+A+F-","0","16","20",0,1,0,0,0,0,0,0,0,1
"259","V+A-F+Ts","V+A-F+","1","16","5",0,0,0,0,0,1,0,0,0,0
"260","V-A-F-Tp","V-A-F-","0","3.8","5",0,1,0,0,0,1,0,0,0,1
"261","V-A+F+Ts","V-A+F+","1","3.8","20",0,0,0,0,0,1,0,0,1,0
"262","V+A+F+Tp","V+A+F+","1","16","20",0,0,0,0,0,1,0,0,1,0
"263","V-A-F-T0","V-A-F-","0","3.8","5",0,0,0,0,0,1,1,0,0,0
"264","V-A-F+Tp","V-A-F+","1","3.8","5",0,0,0,0,0,1,0,0,0,0
"265","V-A+F-T0","V-A+F-","0","3.8","20",0,1,0,0,0,1,0,0,0,1
"266","V-A+F-T0","V-A+F-","0","3.8","20",0,1,0,0,0,1,0,0,0,1
"267","V-A+F-T0","V-A+F-","0","3.8","20",0,1,0,0,0,1,0,0,0,1
"268","V-A-F+T0","V-A-F+","1","3.8","5",0,0,0,0,0,1,0,0,1,0
"269","V+A+F-Tp","V+A+F-","0","16","20",0,1,0,0,0,1,0,0,0,1
"270","V-A+F+T0","V-A+F+","1","3.8","20",0,0,0,0,0,1,0,0,1,0
"271","V+A+F-Tp","V+A+F-","0","16","20",0,1,0,0,0,1,0,0,0,1
"272","V-A+F-Tp","V-A+F-","0","3.8","20",0,1,0,0,0,1,0,0,0,1
"273","V+A-F+Tp","V+A-F+","1","16","5",0,0,0,0,0,1,0,0,0,0
"274","V+A+F+Ts","V+A+F+","1","16","20",0,0,0,0,0,1,0,0,1,0
"275","V-A+F+Tp","V-A+F+","1","3.8","20",0,1,0,0,0,1,0,0,0,1
"276","V-A-F-Ts","V-A-F-","0","3.8","5",0,0,0,0,0,1,0,0,0,0
"277","V+A+F-T0","V+A+F-","0","16","20",0,1,0,0,0,1,0,0,0,1
"278","V+A+F+Tp","V+A+F+","1","16","20",0,0,0,0,0,1,0,0,1,0
"279","V-A-F-Ts","V-A-F-","0","3.8","5",0,0,0,0,0,1,1,0,0,0
"280","V-A-F-T0","V-A-F-","0","3.8","5",0,0,0,0,0,1,1,0,0,0
"281","V-A+F-Tp","V-A+F-","0","3.8","20",0,0,0,1,0,1,0,0,0,0
"282","V+A-F-Ts","V+A-F-","0","16","5",0,0,0,0,0,1,0,0,1,0
"283","V-A-F+Ts","V-A-F+","1","3.8","5",0,0,0,0,0,1,0,0,1,0
"284","V+A-F-T0","V+A-F-","0","16","5",0,0,0,0,0,1,1,0,0,0
"285","V+A+F+T0","V+A+F+","1","16","20",0,0,0,0,0,1,0,0,0,0
"286","V+A+F-Ts","V+A+F-","0","16","20",0,0,0,0,0,1,0,0,1,0
"287","V-A+F+T0","V-A+F+","1","3.8","20",0,0,0,0,0,1,0,0,1,0
"288","V+A-F-Tp","V+A-F-","0","16","5",0,0,0,0,0,1,1,0,0,0
"289","V-A-F+T0","V-A-F+","1","3.8","5",0,0,0,0,0,1,1,0,0,0
"290","V+A+F+Ts","V+A+F+","1","16","20",0,0,0,1,0,1,0,0,0,0
"291","V-A+F+Ts","V-A+F+","1","3.8","20",0,1,0,0,0,1,0,0,0,1
"292","V+A-F-T0","V+A-F-","0","16","5",0,0,0,0,0,1,0,1,0,0
"293","V+A-F+Tp","V+A-F+","1","16","5",0,0,0,0,1,1,0,0,0,0
"294","V+A-F+T0","V+A-F+","1","16","5",0,1,0,0,0,1,0,0,0,1
"295","V-A-F-Tp","V-A-F-","0","3.8","5",0,0,0,0,0,1,0,0,1,0
"296","V-A+F+Tp","V-A+F+","1","3.8","20",0,0,0,0,0,1,1,0,0,0
"297","V-A+F-Ts","V-A+F-","0","3.8","20",0,1,0,0,0,1,0,0,0,1
"298","V+A+F-Tp","V+A+F-","0","16","20",0,0,0,0,0,1,1,0,0,0
"299","V-A-F+Ts","V-A-F+","1","3.8","5",0,0,0,0,0,1,0,0,1,0
"300","V-A+F+Ts","V-A+F+","1","3.8","20",0,0,0,1,0,1,0,0,0,0
"301","V+A-F+Ts","V+A-F+","1","16","5",0,0,0,0,0,1,1,0,0,0
"302","V-A+F+T0","V-A+F+","1","3.8","20",0,1,0,0,0,1,0,0,0,1
"303","V-A-F+Tp","V-A-F+","1","3.8","5",0,0,0,0,0,1,1,0,0,0
"304","V-A-F-Ts","V-A-F-","0","3.8","5",0,0,0,0,0,1,0,0,1,0
"305","V-A-F-Ts","V-A-F-","0","3.8","5",0,0,0,0,0,1,0,1,0,0
"306","V-A+F-Ts","V-A+F-","0","3.8","20",0,1,0,0,0,1,0,0,0,1
"307","V+A+F+T0","V+A+F+","1","16","20",0,0,0,0,1,1,0,0,0,0
"308","V+A-F+T0","V+A-F+","1","16","5",0,0,0,0,1,1,0,0,0,0
"309","V-A-F+Tp","V-A-F+","1","3.8","5",0,0,0,0,0,1,1,0,0,0
"310","V-A+F+Tp","V-A+F+","1","3.8","20",0,0,0,0,0,1,0,0,1,0
"311","V+A-F+T0","V+A-F+","1","16","5",0,0,0,0,0,1,0,1,0,0
"312","V+A+F-Ts","V+A+F-","0","16","20",0,1,0,0,0,1,0,0,0,1
"313","V+A-F+Ts","V+A-F+","1","16","5",0,0,0,0,1,1,0,0,0,0
"314","V+A+F+Tp","V+A+F+","1","16","20",0,0,0,0,0,1,0,0,1,0
"315","V+A-F-Ts","V+A-F-","0","16","5",0,0,0,0,0,1,1,0,0,0
"316","V+A+F+T0","V+A+F+","1","16","20",0,0,0,0,0,1,0,1,0,0
"317","V-A+F-Tp","V-A+F-","0","3.8","20",0,1,0,0,0,1,0,0,0,1
"318","V+A-F+Ts","V+A-F+","1","16","5",0,0,0,0,0,1,1,0,0,0
"319","V+A-F-Ts","V+A-F-","0","16","5",0,1,0,0,0,1,0,0,0,1
"320","V+A+F-T0","V+A+F-","0","16","20",0,0,0,0,0,1,0,1,0,0
"321","V+A-F-Tp","V+A-F-","0","16","5",0,0,0,0,0,1,1,0,0,0
"322","V+A-F+Tp","V+A-F+","1","16","5",0,0,0,0,0,1,1,0,0,0
"323","V+A+F+T0","V+A+F+","1","16","20",0,0,0,0,0,1,0,1,0,0
"324","V-A+F-Tp","V-A+F-","0","3.8","20",0,1,0,0,0,1,0,0,0,1
"325","V-A-F+T0","V-A-F+","1","3.8","5",0,0,0,0,0,1,1,0,0,0
"326","V+A+F+Ts","V+A+F+","1","16","20",0,1,0,0,0,1,0,0,0,1
"327","V-A-F+Ts","V-A-F+","1","3.8","5",0,0,0,1,0,1,0,0,0,0
"328","V+A-F-Tp","V+A-F-","0","16","5",0,0,0,0,0,1,0,0,1,0
"329","V+A+F-Tp","V+A+F-","0","16","20",0,0,0,0,0,1,0,0,1,0
"330","V-A+F-T0","V-A+F-","0","3.8","20",0,0,0,0,0,1,1,0,0,0
"331","V+A-F-T0","V+A-F-","0","16","5",0,1,0,0,0,1,0,0,0,1
"332","V+A+F-T0","V+A+F-","0","16","20",0,0,0,0,0,1,1,0,0,0
"333","V-A+F+T0","V-A+F+","1","3.8","20",0,0,0,0,0,1,0,1,0,0
"334","V-A-F-T0","V-A-F-","0","3.8","5",0,0,0,0,0,1,0,1,0,0
"335","V-A+F+T0","V-A+F+","1","3.8","20",0,1,0,0,0,1,0,0,0,1
"336","V-A+F+Tp","V-A+F+","1","3.8","20",0,0,0,1,0,1,0,0,0,0
"337","V+A+F-Tp","V+A+F-","0","16","20",0,0,0,0,0,1,0,0,1,0
"338","V+A+F-T0","V+A+F-","0","16","20",0,0,0,0,0,1,1,0,0,0
"339","V+A-F-T0","V+A-F-","0","16","5",0,0,0,0,0,1,0,1,0,0
"340","V-A+F-Ts","V-A+F-","0","3.8","20",0,1,0,0,0,1,0,0,0,1
"341","V-A-F-Tp","V-A-F-","0","3.8","5",0,0,0,0,0,1,0,0,1,0
"342","V-A-F-Ts","V-A-F-","0","3.8","5",0,1,0,0,0,1,0,0,0,1
"343","V+A+F+Tp","V+A+F+","1","16","20",0,0,0,1,0,1,0,0,0,0
"344","V+A+F-Ts","V+A+F-","0","16","20",0,0,0,0,0,1,1,0,0,0
"345","V+A+F+Ts","V+A+F+","1","16","20",0,0,0,0,0,0,1,0,0,0
"346","V+A-F-Tp","V+A-F-","0","16","5",0,0,0,0,0,1,0,1,0,0
"347","V-A-F+T0","V-A-F+","1","3.8","5",0,0,0,0,0,1,0,1,0,0
"348","V-A+F-T0","V-A+F-","0","3.8","20",0,1,0,0,0,1,0,0,0,1
"349","V-A+F-T0","V-A+F-","0","3.8","20",0,0,0,0,0,1,1,0,0,0
"350","V-A-F-T0","V-A-F-","0","3.8","5",0,0,0,0,0,1,0,1,0,0
"351","V-A-F+Ts","V-A-F+","1","3.8","5",0,0,0,0,0,1,1,0,0,0
"352","V+A-F-Ts","V+A-F-","0","16","5",0,0,0,0,0,1,0,0,1,0
"353","V+A+F+Tp","V+A+F+","1","16","20",0,0,1,0,0,1,0,0,0,0
"354","V+A+F-Ts","V+A+F-","0","16","20",0,1,0,0,0,1,0,0,0,1
"355","V-A+F+Ts","V-A+F+","1","3.8","20",0,0,0,1,0,1,0,0,0,0
"356","V-A+F-Tp","V-A+F-","0","3.8","20",0,0,0,0,0,1,0,0,1,0
"357","V-A-F-T0","V-A-F-","0","3.8","5",0,0,0,0,0,1,0,1,0,0
"358","V-A-F-Tp","V-A-F-","0","3.8","5",0,0,0,0,0,1,0,1,0,0
"359","V-A-F+Tp","V-A-F+","1","3.8","5",0,0,0,0,0,1,0,0,0,0
"360","V+A-F+Tp","V+A-F+","1","16","5",0,0,0,0,1,1,0,0,0,0
"361","V-A-F+Ts","V-A-F+","1","3.8","5",0,1,0,0,0,1,0,0,0,1
"362","V-A+F-T0","V-A+F-","0","3.8","20",0,0,0,0,0,1,1,0,0,0
"363","V-A+F+Tp","V-A+F+","1","3.8","20",0,0,0,0,0,1,0,1,0,0
"364","V-A+F+Ts","V-A+F+","1","3.8","20",0,1,0,0,0,1,0,0,0,1
"365","V-A+F-Tp","V-A+F-","0","3.8","20",0,0,0,1,0,1,0,0,0,0
"366","V-A-F-Tp","V-A-F-","0","3.8","5",0,0,0,0,0,0,0,1,0,0
"367","V+A+F+Tp","V+A+F+","1","16","20",0,0,0,0,0,1,0,0,0,0
"368","V+A+F-Ts","V+A+F-","0","16","20",0,0,0,1,0,1,0,0,0,0
"369","V+A+F+Tp","V+A+F+","1","16","20",0,1,0,0,0,1,0,0,0,1
"370","V-A+F-T0","V-A+F-","0","3.8","20",0,0,1,0,0,1,0,0,0,0
"371","V+A-F+Ts","V+A-F+","1","16","5",0,0,0,0,0,1,0,0,0,0
"372","V+A+F+T0","V+A+F+","1","16","20",0,0,0,0,0,1,0,1,0,0
"373","V+A+F-Ts","V+A+F-","0","16","20",0,0,0,1,0,1,0,0,0,0
"374","V-A-F+T0","V-A-F+","1","3.8","5",1,0,0,0,0,0,0,0,0,0
"375","V+A-F-T0","V+A-F-","0","16","5",0,0,0,0,0,0,0,1,0,0
"376","V+A+F+T0","V+A+F+","1","16","20",0,0,0,1,0,1,0,0,0,0
"377","V+A-F+T0","V+A-F+","1","16","5",0,0,0,0,0,0,0,1,0,0
"378","V+A-F+T0","V+A-F+","1","16","5",0,0,0,0,0,0,0,1,0,0
"379","V+A+F-T0","V+A+F-","0","16","20",0,0,0,1,0,1,0,0,0,0
"380","V-A-F-T0","V-A-F-","0","3.8","5",0,0,0,1,0,1,0,0,0,0
"381","V+A+F+Ts","V+A+F+","1","16","20",0,0,0,0,0,1,0,0,0,0
"382","V-A+F+Ts","V-A+F+","1","3.8","20",0,1,0,0,0,1,0,0,0,1
"383","V-A+F+Ts","V-A+F+","1","3.8","20",0,0,0,1,0,1,0,0,0,0
"384","V+A-F-T0","V+A-F-","0","16","5",0,0,0,0,0,0,0,1,0,0
"385","V+A+F-Tp","V+A+F-","0","16","20",0,0,0,1,0,1,0,0,0,0
"386","V-A+F-Ts","V-A+F-","0","3.8","20",0,1,0,0,0,1,0,0,0,1
"387","V-A+F-Ts","V-A+F-","0","3.8","20",0,0,0,1,0,1,0,0,0,0
"388","V-A+F-T0","V-A+F-","0","3.8","20",0,1,0,0,0,1,0,0,0,1
"389","V+A-F+Ts","V+A-F+","1","16","5",0,0,0,0,0,1,0,0,0,0
"390","V-A-F+T0","V-A-F+","1","3.8","5",0,0,0,0,0,0,0,1,0,0
"391","V+A-F-Tp","V+A-F-","0","16","5",0,0,0,0,0,1,0,0,0,0
"392","V-A+F+Tp","V-A+F+","1","3.8","20",0,0,0,1,0,1,0,0,0,0
"393","V+A-F-Ts","V+A-F-","0","16","5",0,1,0,0,0,1,0,0,0,1
"394","V+A-F+Ts","V+A-F+","1","16","5",0,0,0,0,0,1,0,0,0,0
"395","V+A+F-T0","V+A+F-","0","16","20",0,0,0,1,0,1,0,0,0,0
"396","V-A-F-Ts","V-A-F-","0","3.8","5",0,0,0,1,0,1,0,0,0,0
"397","V-A-F-Tp","V-A-F-","0","3.8","5",0,1,0,0,0,1,0,0,0,1
"398","V+A+F-Tp","V+A+F-","0","16","20",0,0,0,1,0,1,0,0,0,0
"399","V+A-F-T0","V+A-F-","0","16","5",0,0,0,0,0,0,0,1,0,0
"400","V-A-F-T0","V-A-F-","0","3.8","5",0,0,0,0,0,1,1,0,0,0
"401","V-A+F+Tp","V-A+F+","1","3.8","20",0,1,0,0,0,1,0,0,0,1
"402","V+A+F+Tp","V+A+F+","1","16","20",0,0,0,0,0,1,0,0,0,0
"403","V-A+F+T0","V-A+F+","1","3.8","20",0,0,0,0,0,1,0,0,0,0
"404","V-A-F-Ts","V-A-F-","0","3.8","5",0,0,0,1,0,1,0,0,0,0
"405","V-A-F-Tp","V-A-F-","0","3.8","5",0,1,0,0,0,1,0,0,0,1
"406","V+A-F+T0","V+A-F+","1","16","5",0,0,0,0,0,1,0,0,1,0
"407","V-A-F+Tp","V-A-F+","1","3.8","5",0,0,0,0,0,1,0,1,0,0
"408","V+A+F+Ts","V+A+F+","1","16","20",0,0,0,0,0,1,0,0,0,0
"409","V-A+F-Tp","V-A+F-","0","3.8","20",0,1,0,0,0,1,0,0,0,1
"410","V+A-F-Ts","V+A-F-","0","16","5",0,0,0,0,0,1,0,0,0,0
"411","V-A-F+T0","V-A-F+","1","3.8","5",0,0,0,0,0,1,1,0,0,0
"412","V+A-F+Tp","V+A-F+","1","16","5",0,1,0,0,0,1,0,0,0,1
"413","V-A+F+T0","V-A+F+","1","3.8","20",0,0,0,1,0,1,0,0,0,0
"414","V+A-F+Tp","V+A-F+","1","16","5",0,1,0,0,0,1,0,0,0,1
"415","V+A-F-Tp","V+A-F-","0","16","5",0,0,0,0,0,1,0,0,0,0
"416","V+A-F-Ts","V+A-F-","0","16","5",0,0,0,0,0,1,1,0,0,0
"417","V+A-F-Tp","V+A-F-","0","16","5",0,1,0,0,0,1,0,0,0,1
"418","V-A-F-Ts","V-A-F-","0","3.8","5",0,0,0,1,0,1,0,0,0,0
"419","V-A+F-Ts","V-A+F-","0","3.8","20",0,0,0,1,0,1,0,0,0,0
"420","V-A-F-T0","V-A-F-","0","3.8","5",0,0,0,1,0,1,0,0,0,0
"421","V+A+F+T0","V+A+F+","1","16","20",0,0,0,0,0,1,0,0,0,0
"422","V-A+F-Tp","V-A+F-","0","3.8","20",0,0,0,1,0,1,0,0,0,0
"423","V-A+F+T0","V-A+F+","1","3.8","20",0,0,0,0,0,1,0,1,0,0
"424","V-A-F+Tp","V-A-F+","1","3.8","5",0,1,0,0,0,1,0,0,0,1
"425","V+A+F-Tp","V+A+F-","0","16","20",0,0,0,1,0,1,0,0,0,0
"426","V+A+F-Ts","V+A+F-","0","16","20",0,0,0,1,0,1,0,0,0,0
"427","V+A-F+Tp","V+A-F+","1","16","5",0,0,0,0,0,1,0,0,0,0
"428","V+A+F+Ts","V+A+F+","1","16","20",0,0,0,0,0,1,0,0,0,0
"429","V-A-F+Tp","V-A-F+","1","3.8","5",0,1,0,0,0,1,0,0,0,1
"430","V+A+F-T0","V+A+F-","0","16","20",0,0,0,0,0,1,0,1,0,0
"431","V-A-F+Ts","V-A-F+","1","3.8","5",0,0,0,0,0,1,1,0,0,0
"432","V-A-F+Ts","V-A-F+","1","3.8","5",0,0,0,0,0,1,0,1,0,0
"433","V-A+F-Ts","V-A+F-","0","3.8","20",0,1,0,0,0,1,0,0,0,1
"434","V-A-F-T0","V-A-F-","0","3.8","5",0,0,0,0,0,1,0,1,0,0
"435","V+A+F+Tp","V+A+F+","1","16","20",0,0,0,1,0,1,0,0,0,0
"436","V-A+F-Tp","V-A+F-","0","3.8","20",0,1,0,0,0,1,0,0,0,1
"437","V+A+F+Tp","V+A+F+","1","16","20",0,0,0,1,0,1,0,0,0,0
"438","V+A+F-Ts","V+A+F-","0","16","20",0,0,1,0,0,1,0,0,0,0
"439","V-A-F+Tp","V-A-F+","1","3.8","5",0,0,0,0,0,1,0,1,0,0
"440","V-A-F+T0","V-A-F+","1","3.8","5",0,1,0,0,0,1,0,0,0,1
"441","V+A-F-T0","V+A-F-","0","16","5",0,0,1,0,0,1,0,0,0,0
"442","V-A+F+Ts","V-A+F+","1","3.8","20",0,0,0,1,0,1,0,0,0,0
"443","V+A-F-T0","V+A-F-","0","16","5",0,0,0,0,0,1,0,0,1,0
"444","V+A+F+Ts","V+A+F+","1","16","20",0,0,0,1,0,1,0,0,0,0
"445","V-A+F-T0","V-A+F-","0","3.8","20",0,1,0,0,0,1,0,0,0,1
"446","V-A+F+Ts","V-A+F+","1","3.8","20",0,0,1,0,0,1,0,0,0,0
"447","V+A+F+T0","V+A+F+","1","16","20",0,0,0,0,0,1,0,1,0,0
"448","V+A+F+Ts","V+A+F+","1","16","20",0,0,0,1,0,1,0,0,0,0
"449","V+A+F+Ts","V+A+F+","1","16","20",0,0,0,1,0,1,0,0,0,0
"450","V-A+F+Tp","V-A+F+","1","3.8","20",0,0,1,0,0,1,0,0,0,0
"451","V-A-F+Tp","V-A-F+","1","3.8","5",0,0,1,0,0,1,0,0,0,0
"452","V-A-F+T0","V-A-F+","1","3.8","5",0,0,0,0,0,1,0,1,0,0
"453","V+A+F-T0","V+A+F-","0","16","20",0,1,0,0,0,0,0,0,0,1
"454","V+A-F-Tp","V+A-F-","0","16","5",0,0,1,0,0,1,0,0,0,0
"455","V+A+F+T0","V+A+F+","1","16","20",0,0,0,1,0,1,0,0,0,0
"456","V+A-F+Tp","V+A-F+","1","16","5",0,0,1,0,0,1,0,0,0,0
"457","V-A+F+T0","V-A+F+","1","3.8","20",0,1,0,0,0,1,0,0,0,1
"458","V+A+F-Ts","V+A+F-","0","16","20",0,1,0,0,0,1,0,0,0,1
"459","V-A-F-Ts","V-A-F-","0","3.8","5",0,0,1,0,0,1,0,0,0,0
"460","V-A+F-T0","V-A+F-","0","3.8","20",0,1,0,0,0,1,0,0,0,1
"461","V+A-F+Tp","V+A-F+","1","16","5",0,0,1,0,0,1,0,0,0,0
"462","V-A-F+Ts","V-A-F+","1","3.8","5",0,0,0,0,1,1,0,0,0,0
"463","V-A+F-T0","V-A+F-","0","3.8","20",0,0,0,1,0,1,0,0,0,0
"464","V-A-F-Tp","V-A-F-","0","3.8","5",0,0,1,0,0,1,0,0,0,0
"465","V+A+F-Tp","V+A+F-","0","16","20",0,0,0,1,0,1,0,0,0,0
"466","V+A+F-T0","V+A+F-","0","16","20",0,0,0,1,0,1,0,0,0,0
"467","V-A-F-Ts","V-A-F-","0","3.8","5",0,0,0,0,1,1,0,0,0,0
"468","V-A+F+Tp","V-A+F+","1","3.8","20",0,0,1,0,0,1,0,0,0,0
"469","V+A-F+Ts","V+A-F+","1","16","5",0,0,0,0,1,1,0,0,0,0
"470","V-A-F-T0","V-A-F-","0","3.8","5",0,1,0,0,0,1,0,0,0,1
"471","V+A+F-Tp","V+A+F-","0","16","20",0,0,0,1,0,1,0,0,0,0
"472","V+A-F+Tp","V+A-F+","1","16","5",0,0,0,0,1,1,0,0,0,0
"473","V-A+F-Tp","V-A+F-","0","3.8","20",0,1,0,0,0,1,0,0,0,1
"474","V-A-F+Tp","V-A-F+","1","3.8","5",0,0,1,0,0,1,0,0,0,0
"475","V-A-F+T0","V-A-F+","1","3.8","5",0,0,0,0,0,1,0,1,0,0
"476","V+A-F-Ts","V+A-F-","0","16","5",0,0,0,0,1,1,0,0,0,0
"477","V+A+F-Ts","V+A+F-","0","16","20",0,0,0,1,0,1,0,0,0,0
"478","V+A+F+Tp","V+A+F+","1","16","20",0,0,0,1,0,1,0,0,0,0
"479","V+A-F-Tp","V+A-F-","0","16","5",0,0,1,0,0,1,0,0,0,0
"480","V+A-F+T0","V+A-F+","1","16","5",0,0,0,0,0,1,1,0,0,0
"481","V-A+F+T0","V-A+F+","1","3.8","20",0,0,0,0,1,1,0,0,0,0
"482","V-A+F-Ts","V-A+F-","0","3.8","20",0,1,0,0,0,1,0,0,0,1
"483","V-A-F-Tp","V-A-F-","0","3.8","5",0,0,1,0,0,1,0,0,0,0
"484","V-A-F-Ts","V-A-F-","0","3.8","5",0,0,0,0,1,1,0,0,0,0
"485","V+A-F+Ts","V+A-F+","1","16","5",0,0,0,0,1,1,0,0,0,0
"486","V+A-F+T0","V+A-F+","1","16","5",0,0,0,0,0,1,0,0,0,0
"487","V+A-F-Ts","V+A-F-","0","16","5",0,0,0,0,1,1,0,0,0,0
"488","V+A+F-Tp","V+A+F-","0","16","20",0,0,1,0,0,1,0,0,0,0
"489","V-A-F+Ts","V-A-F+","1","3.8","5",0,0,0,0,1,1,0,0,0,0
"490","V-A-F-Tp","V-A-F-","0","3.8","5",0,0,0,1,0,1,0,0,0,0
"491","V-A+F-Tp","V-A+F-","0","3.8","20",0,0,1,0,0,1,0,0,0,0
"492","V+A-F-Tp","V+A-F-","0","16","5",0,0,0,0,1,1,0,0,0,0
"493","V-A-F-T0","V-A-F-","0","3.8","5",0,0,0,1,0,1,0,0,0,0
"494","V+A-F+Ts","V+A-F+","1","16","5",0,0,0,0,1,1,0,0,0,0
"495","V-A+F+Ts","V-A+F+","1","3.8","20",0,0,0,0,0,1,0,0,0,0
"496","V+A-F-Ts","V+A-F-","0","16","5",0,0,1,0,0,1,0,0,0,0
"497","V+A+F+T0","V+A+F+","1","16","20",0,0,0,0,0,1,0,0,0,0
"498","V+A+F-T0","V+A+F-","0","16","20",0,0,0,0,0,1,0,1,0,0
"499","V-A-F+Ts","V-A-F+","1","3.8","5",0,0,1,0,0,1,0,0,0,0
"500","V-A+F+T0","V-A+F+","1","3.8","20",0,0,0,0,0,1,0,0,0,0
"501","V+A-F+T0","V+A-F+","1","16","5",0,0,0,0,0,1,0,0,1,0
"502","V+A-F-T0","V+A-F-","0","16","5",0,0,0,0,1,1,0,0,0,0
"503","V-A+F-Ts","V-A+F-","0","3.8","20",0,0,1,0,0,1,0,0,0,0
"504","V-A+F+Tp","V-A+F+","1","3.8","20",0,0,0,0,1,1,0,0,0,0
"505","V+A+F-Tp","V+A+F-","0","16","20",0,0,0,0,0,1,0,1,0,0
"506","V-A-F+T0","V-A-F+","1","3.8","5",0,0,0,0,0,1,1,0,0,0
"507","V-A+F-Ts","V-A+F-","0","3.8","20",0,1,0,0,0,1,0,0,0,1
"508","V-A+F+Ts","V-A+F+","1","3.8","20",0,1,0,0,0,1,0,0,0,1
"509","V+A-F+Ts","V+A-F+","1","16","5",0,0,0,0,1,1,0,0,0,0
"510","V-A+F-Tp","V-A+F-","0","3.8","20",0,1,0,0,0,1,0,0,0,1
"511","V-A-F-Ts","V-A-F-","0","3.8","5",0,0,1,0,0,1,0,0,0,0
"512","V+A-F-Ts","V+A-F-","0","16","5",0,0,0,0,1,1,0,0,0,0
"513","V-A+F+T0","V-A+F+","1","3.8","20",0,0,0,0,0,1,0,1,0,0
"514","V+A+F-Ts","V+A+F-","0","16","20",0,0,0,0,0,1,1,0,0,0
"515","V+A+F+Ts","V+A+F+","1","16","20",0,0,0,0,0,1,0,1,0,0
"516","V+A-F-Tp","V+A-F-","0","16","5",0,0,0,0,0,1,1,0,0,0
"517","V+A+F+T0","V+A+F+","1","16","20",0,0,0,0,1,1,0,0,0,0
"518","V+A-F-Ts","V+A-F-","0","16","5",0,0,0,1,0,1,0,0,0,0
"519","V+A-F+T0","V+A-F+","1","16","5",0,0,0,0,0,1,0,0,0,0
"520","V-A-F+T0","V-A-F+","1","3.8","5",0,0,0,1,0,1,0,0,0,0
"521","V+A-F+T0","V+A-F+","1","16","5",1,0,0,0,0,1,0,0,0,0
"522","V+A-F+Tp","V+A-F+","1","16","5",0,0,0,0,0,1,0,1,0,0
"523","V+A+F-Tp","V+A+F-","0","16","20",0,0,1,0,0,1,0,0,0,0
"524","V-A+F-Ts","V-A+F-","0","3.8","20",0,1,0,0,0,1,0,0,0,1
"525","V-A+F-Ts","V-A+F-","0","3.8","20",0,1,0,0,0,1,0,0,0,1
"526","V+A+F-Tp","V+A+F-","0","16","20",1,0,0,0,0,1,0,0,0,0
"527","V+A+F-T0","V+A+F-","0","16","20",0,0,0,0,0,1,0,1,0,0
"528","V-A-F-Tp","V-A-F-","0","3.8","5",0,0,1,0,0,1,0,0,0,0
"529","V-A+F+T0","V-A+F+","1","3.8","20",0,0,0,1,0,1,0,0,0,0
"530","V-A+F+T0","V-A+F+","1","3.8","20",0,0,1,0,0,1,0,0,0,0
"531","V+A-F+Tp","V+A-F+","1","16","5",0,0,0,0,0,1,0,1,0,0
"532","V-A-F-T0","V-A-F-","0","3.8","5",0,1,0,0,0,1,0,0,0,1
"533","V-A+F+Tp","V-A+F+","1","3.8","20",0,1,0,0,0,1,0,0,0,1
"534","V-A+F-T0","V-A+F-","0","3.8","20",0,1,0,0,0,1,0,0,0,1
"535","V+A-F-T0","V+A-F-","0","16","5",0,0,0,0,0,1,0,0,0,0
"536","V+A-F+Tp","V+A-F+","1","16","5",1,0,0,0,0,1,0,0,0,0
"537","V-A+F+Tp","V-A+F+","1","3.8","20",0,1,0,0,0,1,0,0,0,1
"538","V-A-F+Tp","V-A-F+","1","3.8","5",0,0,1,0,0,1,0,0,0,0
"539","V-A-F-Tp","V-A-F-","0","3.8","5",0,1,0,0,0,1,0,0,0,1
"540","V-A+F-T0","V-A+F-","0","3.8","20",0,0,0,1,0,1,0,0,0,0
"541","V-A+F-T0","V-A+F-","0","3.8","20",0,0,0,1,0,1,0,0,0,0
"542","V+A-F+Ts","V+A-F+","1","16","5",0,0,0,0,0,1,1,0,0,0
"543","V+A-F-Ts","V+A-F-","0","16","5",0,0,0,0,0,1,0,1,0,0
"544","V-A-F+Tp","V-A-F+","1","3.8","5",0,0,0,0,0,1,1,0,0,0
"545","V+A-F+T0","V+A-F+","1","16","5",0,0,0,0,0,1,0,0,0,0
"546","V-A-F-T0","V-A-F-","0","3.8","5",0,0,0,0,0,1,1,0,0,0
"547","V-A+F-Tp","V-A+F-","0","3.8","20",0,1,0,0,0,1,0,0,0,1
"548","V-A-F-Tp","V-A-F-","0","3.8","5",0,0,0,0,0,1,1,0,0,0
"549","V-A-F+T0","V-A-F+","1","3.8","5",1,0,0,0,0,1,0,0,0,0
"550","V+A-F+Ts","V+A-F+","1","16","5",1,0,0,0,0,1,0,0,0,0
"551","V-A-F-Ts","V-A-F-","0","3.8","5",0,0,0,1,0,1,0,0,0,0
"552","V+A+F-Ts","V+A+F-","0","16","20",0,0,0,0,0,1,0,1,0,0
"553","V+A+F-T0","V+A+F-","0","16","20",0,0,0,0,0,1,0,1,0,0
"554","V+A-F-Tp","V+A-F-","0","16","5",1,0,0,0,0,1,0,0,0,0
"555","V+A+F-Ts","V+A+F-","0","16","20",0,0,0,0,0,1,0,1,0,0
"556","V+A+F+Tp","V+A+F+","1","16","20",0,0,1,0,0,1,0,0,0,0
"557","V-A-F+Tp","V-A-F+","1","3.8","5",0,1,0,0,0,1,0,0,0,1
"558","V-A-F+Ts","V-A-F+","1","3.8","5",0,0,1,0,0,1,0,0,0,0
"559","V+A-F-Tp","V+A-F-","0","16","5",0,0,0,0,0,1,0,0,1,0
"560","V+A+F+Ts","V+A+F+","1","16","20",0,0,0,0,0,1,1,0,0,0
"561","V-A-F-Ts","V-A-F-","0","3.8","5",0,1,0,0,0,1,0,0,0,1
"562","V+A-F-T0","V+A-F-","0","16","5",1,0,0,0,0,1,0,0,0,0
"563","V+A+F+T0","V+A+F+","1","16","20",0,0,0,0,0,1,0,1,0,0
"564","V-A-F-T0","V-A-F-","0","3.8","5",0,0,1,0,0,1,0,0,0,0
"565","V+A+F+T0","V+A+F+","1","16","20",0,0,0,0,0,1,0,0,0,0
"566","V+A+F+Tp","V+A+F+","1","16","20",0,0,0,0,0,1,1,0,0,0
"567","V+A-F-T0","V+A-F-","0","16","5",0,0,0,1,0,1,0,0,0,0
"568","V-A-F+Ts","V-A-F+","1","3.8","5",0,0,1,0,0,1,0,0,0,0
"569","V-A+F+Ts","V-A+F+","1","3.8","20",0,0,0,1,0,1,0,0,0,0
"570","V+A+F+Tp","V+A+F+","1","16","20",0,1,0,0,0,1,0,0,0,1
"571","V-A+F+Ts","V-A+F+","1","3.8","20",0,0,0,1,0,1,0,0,0,0
"572","V+A+F-T0","V+A+F-","0","16","20",0,0,0,1,0,1,0,0,0,0
"573","V+A+F+Ts","V+A+F+","1","16","20",0,0,0,1,0,1,0,0,0,0
"574","V-A+F-Tp","V-A+F-","0","3.8","20",0,0,1,0,0,1,0,0,0,0
"575","V-A-F+Ts","V-A-F+","1","3.8","5",0,1,0,0,0,1,0,0,0,1
"576","V-A+F+Tp","V-A+F+","1","3.8","20",0,1,0,0,0,1,0,0,0,1
"577","V-A-F-T0","V-A-F-","0","3.8","5",0,1,0,0,0,1,0,0,0,1
"578","V+A-F-T0","V+A-F-","0","16","5",0,0,0,0,0,1,1,0,0,0
"579","V+A+F-Ts","V+A+F-","0","16","20",0,0,0,1,0,1,0,0,0,0
"580","V-A+F+Tp","V-A+F+","1","3.8","20",0,0,0,0,0,1,0,0,0,0
"581","V-A+F+T0","V-A+F+","1","3.8","20",0,0,1,0,0,1,0,0,0,0
"582","V+A-F+Tp","V+A-F+","1","16","5",0,0,0,0,0,1,0,0,0,0
"583","V+A-F+Tp","V+A-F+","1","16","5",0,0,0,1,0,1,0,0,0,0
"584","V+A-F-T0","V+A-F-","0","16","5",0,0,0,0,0,1,0,1,0,0
"585","V-A+F-Ts","V-A+F-","0","3.8","20",0,1,0,0,0,1,0,0,0,1
"586","V-A-F-T0","V-A-F-","0","3.8","5",0,0,0,0,0,1,0,1,0,0
"587","V+A-F+Ts","V+A-F+","1","16","5",0,0,0,0,0,0,0,0,0,0
"588","V+A+F-Tp","V+A+F-","0","16","20",0,1,0,0,0,1,0,0,0,1
"589","V-A-F+Ts","V-A-F+","1","3.8","5",0,0,1,0,0,0,0,0,0,0
"590","V+A-F-Ts","V+A-F-","0","16","5",0,0,0,0,0,1,0,0,0,0
"591","V-A-F-Tp","V-A-F-","0","3.8","5",0,0,1,0,0,1,0,0,0,0
"592","V-A+F+Tp","V-A+F+","1","3.8","20",0,0,0,0,1,1,0,0,0,0
"593","V+A+F+Ts","V+A+F+","1","16","20",0,0,0,0,0,1,0,0,1,0
"594","V-A-F-Tp","V-A-F-","0","3.8","5",0,0,1,0,0,1,0,0,0,0
"595","V+A-F+Tp","V+A-F+","1","16","5",0,0,0,0,0,1,1,0,0,0
"596","V+A+F+T0","V+A+F+","1","16","20",0,0,0,0,0,1,0,0,1,0
"597","V-A-F-Tp","V-A-F-","0","3.8","5",0,0,0,0,0,0,0,1,0,0
"598","V+A+F+T0","V+A+F+","1","16","20",0,0,0,0,0,1,0,0,1,0
"599","V+A-F+Ts","V+A-F+","1","16","5",0,0,0,1,0,1,0,0,0,0
"600","V+A-F-T0","V+A-F-","0","16","5",0,0,0,0,0,1,0,0,1,0
"601","V+A+F+Ts","V+A+F+","1","16","20",0,0,1,0,0,1,0,0,0,0
"602","V+A+F+Tp","V+A+F+","1","16","20",0,0,1,0,0,0,0,0,0,0
"603","V+A+F-T0","V+A+F-","0","16","20",0,0,0,0,0,0,1,0,0,0
"604","V-A+F-T0","V-A+F-","0","3.8","20",0,1,0,0,0,1,0,0,0,1
"605","V+A+F-Ts","V+A+F-","0","16","20",0,0,0,0,0,1,0,1,0,0
"606","V+A-F+Ts","V+A-F+","1","16","5",0,0,0,1,0,1,0,0,0,0
"607","V-A+F-Tp","V-A+F-","0","3.8","20",0,1,0,0,0,1,0,0,0,1
"608","V+A-F+T0","V+A-F+","1","16","5",0,0,0,0,0,1,0,1,0,0
"609","V+A+F-T0","V+A+F-","0","16","20",0,0,0,0,0,0,0,1,0,0
"610","V-A+F-Tp","V-A+F-","0","3.8","20",0,0,1,0,0,1,0,0,0,0
"611","V-A+F-T0","V-A+F-","0","3.8","20",0,1,0,0,0,1,0,0,0,1
"612","V+A-F+T0","V+A-F+","1","16","5",0,0,0,0,0,1,0,0,0,0
"613","V+A-F+T0","V+A-F+","1","16","5",0,0,0,0,0,1,0,0,1,0
"614","V-A-F+Tp","V-A-F+","1","3.8","5",0,0,0,0,0,1,1,0,0,0
"615","V+A-F-Ts","V+A-F-","0","16","5",0,0,0,1,0,1,0,0,0,0
"616","V-A-F+T0","V-A-F+","1","3.8","5",0,0,0,0,0,1,0,1,0,0
"617","V-A-F-Ts","V-A-F-","0","3.8","5",0,1,0,0,0,1,0,0,0,1
"618","V+A+F+T0","V+A+F+","1","16","20",0,0,0,0,0,1,0,0,0,0
"619","V+A+F+Tp","V+A+F+","1","16","20",0,0,0,0,1,0,0,0,0,0
"620","V-A+F+T0","V-A+F+","1","3.8","20",0,0,1,0,0,0,0,0,0,0
"621","V+A-F-Tp","V+A-F-","0","16","5",0,0,0,0,0,1,0,0,0,0
"622","V-A-F+T0","V-A-F+","1","3.8","5",0,0,0,0,0,1,0,1,0,0
"623","V-A-F-Ts","V-A-F-","0","3.8","5",0,1,0,0,0,1,0,0,0,1
"624","V-A+F+Ts","V-A+F+","1","3.8","20",0,1,0,0,0,1,0,0,0,1
"625","V-A+F+Tp","V-A+F+","1","3.8","20",0,0,0,0,0,0,1,0,0,0
"626","V+A+F-Tp","V+A+F-","0","16","20",0,0,0,0,0,1,0,1,0,0
"627","V+A+F+Ts","V+A+F+","1","16","20",0,1,0,0,0,1,0,0,0,1
"628","V-A-F-T0","V-A-F-","0","3.8","5",0,0,1,0,0,1,0,0,0,0
"629","V+A-F-Tp","V+A-F-","0","16","5",0,0,0,0,0,1,1,0,0,0
"630","V+A+F-T0","V+A+F-","0","16","20",0,0,0,1,0,1,0,0,0,0
"631","V-A-F-Ts","V-A-F-","0","3.8","5",0,0,1,0,0,1,0,0,0,0
"632","V-A-F+Tp","V-A-F+","1","3.8","5",0,1,0,0,0,1,0,0,0,1
"633","V+A-F-Ts","V+A-F-","0","16","5",0,0,0,1,0,1,0,0,0,0
"634","V-A+F+T0","V-A+F+","1","3.8","20",0,0,0,0,0,1,1,0,0,0
"635","V-A-F+Ts","V-A-F+","1","3.8","5",0,0,0,0,0,1,0,1,0,0
"636","V-A-F+Ts","V-A-F+","1","3.8","5",0,0,1,0,0,1,0,0,0,0
"637","V-A+F-Tp","V-A+F-","0","3.8","20",0,0,1,0,0,1,0,0,0,0
"638","V-A+F+Ts","V-A+F+","1","3.8","20",0,1,0,0,0,1,0,0,0,1
"639","V-A+F-T0","V-A+F-","0","3.8","20",0,1,0,0,0,1,0,0,0,1
"640","V-A+F-Ts","V-A+F-","0","3.8","20",0,0,1,0,0,1,0,0,0,0
"641","V-A-F+T0","V-A-F+","1","3.8","5",0,0,0,0,0,1,0,1,0,0
"642","V-A+F+Ts","V-A+F+","1","3.8","20",0,1,0,0,0,1,0,0,0,1
"643","V+A+F-Tp","V+A+F-","0","16","20",0,0,0,1,0,1,0,0,0,0
"644","V-A+F-Ts","V-A+F-","0","3.8","20",0,0,0,0,1,1,0,0,0,0
"645","V+A+F+Tp","V+A+F+","1","16","20",0,0,0,0,0,1,0,0,0,0
"646","V-A-F+Tp","V-A-F+","1","3.8","5",0,0,0,0,0,1,0,0,1,0
"647","V+A-F-Tp","V+A-F-","0","16","5",0,0,0,0,0,1,0,0,1,0
"648","V+A+F-Ts","V+A+F-","0","16","20",0,0,0,1,0,1,0,0,0,0
"649","V-A+F-T0","V-A+F-","0","3.8","20",0,0,0,0,0,1,0,1,0,0
"650","V-A-F+Ts","V-A-F+","1","3.8","5",0,0,0,0,0,0,0,0,0,0
"651","V+A+F-T0","V+A+F-","0","16","20",0,0,0,0,0,1,0,1,0,0
"652","V-A+F+T0","V-A+F+","1","3.8","20",0,0,0,0,0,1,1,0,0,0
"653","V-A+F-Tp","V-A+F-","0","3.8","20",0,1,0,0,0,1,0,0,0,1
"654","V+A+F+Ts","V+A+F+","1","16","20",0,0,0,0,0,1,0,0,0,0
"655","V+A-F+T0","V+A-F+","1","16","5",0,0,0,0,0,1,0,0,1,0
"656","V+A+F+T0","V+A+F+","1","16","20",0,0,0,0,0,1,0,1,0,0
"657","V-A+F-Ts","V-A+F-","0","3.8","20",0,1,0,0,0,1,0,0,0,1
"658","V-A+F-Tp","V-A+F-","0","3.8","20",0,1,0,0,0,1,0,0,0,1
"659","V-A+F+Ts","V-A+F+","1","3.8","20",0,0,0,0,1,1,0,0,0,0
"660","V-A+F-Ts","V-A+F-","0","3.8","20",0,1,0,0,0,1,0,0,0,1
"661","V-A+F-Ts","V-A+F-","0","3.8","20",1,0,0,0,0,1,0,0,0,0
"662","V+A-F+T0","V+A-F+","1","16","5",0,0,0,0,0,1,0,0,0,0
"663","V-A-F-Tp","V-A-F-","0","3.8","5",0,0,0,0,0,1,0,1,0,0
"664","V-A+F+Tp","V-A+F+","1","3.8","20",1,0,0,0,0,1,0,0,0,0
"665","V-A+F+Ts","V-A+F+","1","3.8","20",0,0,0,0,0,1,1,0,0,0
"666","V-A+F-Tp","V-A+F-","0","3.8","20",1,0,0,0,0,1,0,0,0,0
"667","V-A-F-T0","V-A-F-","0","3.8","5",0,0,1,0,0,1,0,0,0,0
"668","V+A-F-Tp","V+A-F-","0","16","5",0,0,0,0,0,1,0,0,1,0
"669","V+A+F-Ts","V+A+F-","0","16","20",0,0,0,0,0,1,0,0,0,0
"670","V-A-F+T0","V-A-F+","1","3.8","5",0,0,0,0,0,1,1,0,0,0
"671","V+A-F+Ts","V+A-F+","1","16","5",0,0,0,0,0,1,0,0,0,0
"672","V-A-F-T0","V-A-F-","0","3.8","5",0,0,0,1,0,1,0,0,0,0
"673","V-A-F-Tp","V-A-F-","0","3.8","5",0,0,0,0,1,1,0,0,0,0
"674","V-A-F-Ts","V-A-F-","0","3.8","5",0,0,1,0,0,1,0,0,0,0
"675","V-A-F+T0","V-A-F+","1","3.8","5",0,0,0,1,0,1,0,0,0,0
"676","V+A-F+Tp","V+A-F+","1","16","5",0,0,0,0,0,1,0,0,0,0
"677","V+A-F-T0","V+A-F-","0","16","5",0,0,0,0,0,1,0,0,1,0
"678","V-A-F+Tp","V-A-F+","1","3.8","5",0,0,0,0,0,1,0,0,0,0
"679","V+A+F+Tp","V+A+F+","1","16","20",0,0,0,0,1,1,0,0,0,0
"680","V+A+F-Ts","V+A+F-","0","16","20",0,0,0,0,0,1,0,0,1,0
"681","V-A+F+Tp","V-A+F+","1","3.8","20",0,0,0,0,1,1,0,0,0,0
"682","V+A-F-T0","V+A-F-","0","16","5",0,0,0,0,0,1,0,0,1,0
"683","V-A-F-T0","V-A-F-","0","3.8","5",0,1,0,0,0,1,0,0,0,1
"684","V-A+F+T0","V-A+F+","1","3.8","20",1,0,0,0,0,1,0,0,0,0
"685","V-A-F+Tp","V-A-F+","1","3.8","5",0,0,0,0,0,0,0,0,0,0
"686","V+A-F+Tp","V+A-F+","1","16","5",0,0,0,0,0,1,0,0,0,0
"687","V-A-F+T0","V-A-F+","1","3.8","5",0,0,0,0,0,1,1,0,0,0
"688","V+A+F-Tp","V+A+F-","0","16","20",1,0,0,0,0,1,0,0,0,0
"689","V+A-F+Ts","V+A-F+","1","16","5",0,0,0,0,0,1,0,1,0,0
"690","V+A+F+T0","V+A+F+","1","16","20",0,0,0,0,0,1,0,0,1,0
"691","V-A+F+Ts","V-A+F+","1","3.8","20",0,1,0,0,0,1,0,0,0,1
"692","V+A-F-Ts","V+A-F-","0","16","5",0,0,0,0,0,1,0,0,1,0
"693","V-A+F-T0","V-A+F-","0","3.8","20",0,0,0,0,0,1,0,1,0,0
"694","V+A-F+Ts","V+A-F+","1","16","5",0,0,0,0,0,1,0,0,0,0
"695","V-A-F-Ts","V-A-F-","0","3.8","5",0,0,0,1,0,1,0,0,0,0
"696","V-A-F+Ts","V-A-F+","1","3.8","5",0,0,0,0,0,1,0,1,0,0
"697","V+A+F-Tp","V+A+F-","0","16","20",0,0,0,1,0,1,0,0,0,0
"698","V-A+F+T0","V-A+F+","1","3.8","20",0,0,1,0,0,1,0,0,0,0
"699","V-A-F+Ts","V-A-F+","1","3.8","5",0,0,0,0,0,1,0,0,0,0
"700","V+A+F+T0","V+A+F+","1","16","20",0,0,0,0,1,1,0,0,0,0
"701","V+A+F-Ts","V+A+F-","0","16","20",1,0,0,0,0,1,0,0,0,0
"702","V+A+F+Ts","V+A+F+","1","16","20",0,0,0,0,1,1,0,0,0,0
"703","V-A-F+Tp","V-A-F+","1","3.8","5",0,0,0,0,0,1,0,1,0,0
"704","V+A+F-T0","V+A+F-","0","16","20",0,0,0,0,0,1,0,0,1,0
"705","V+A+F-T0","V+A+F-","0","16","20",0,0,0,0,0,1,0,1,0,0
"706","V+A+F+Tp","V+A+F+","1","16","20",0,0,0,0,1,1,0,0,0,0
"707","V-A-F-Ts","V-A-F-","0","3.8","5",0,0,0,1,0,1,0,0,0,0
"708","V-A+F+Tp","V-A+F+","1","3.8","20",1,0,0,0,0,1,0,0,0,0
"709","V+A-F+Tp","V+A-F+","1","16","5",0,0,0,0,0,1,0,0,0,0
"710","V+A+F+Tp","V+A+F+","1","16","20",0,0,0,0,1,1,0,0,0,0
"711","V+A-F-Tp","V+A-F-","0","16","5",0,0,0,0,0,1,0,0,1,0
"712","V-A-F-Tp","V-A-F-","0","3.8","5",0,1,0,0,0,1,0,0,0,1
"713","V+A-F-Tp","V+A-F-","0","16","5",0,0,0,0,0,1,0,0,0,0
"714","V+A+F-Tp","V+A+F-","0","16","20",1,0,0,0,0,1,0,0,0,0
"715","V+A+F+Ts","V+A+F+","1","16","20",0,0,0,0,1,1,0,0,0,0
"716","V-A+F-T0","V-A+F-","0","3.8","20",0,0,0,1,0,1,0,0,0,0
"717","V+A-F-Ts","V+A-F-","0","16","5",0,0,0,0,0,1,0,0,0,0
"718","V+A-F-T0","V+A-F-","0","16","5",0,0,0,0,0,1,0,0,1,0
"719","V+A-F+T0","V+A-F+","1","16","5",0,0,0,0,0,1,0,0,0,0
"720","V+A-F-Ts","V+A-F-","0","16","5",0,0,0,0,0,1,1,0,0,0
"721","V-A-F+T0","V-A-F+","1","3.8","5",0,0,1,0,0,1,0,0,0,0
"722","V+A+F+Ts","V+A+F+","1","16","20",0,1,0,0,0,0,0,0,0,1
"723","V-A-F+T0","V-A-F+","1","3.8","5",0,0,0,0,0,1,0,1,0,0
"724","V+A-F-Tp","V+A-F-","0","16","5",0,0,1,0,0,1,0,0,0,0
"725","V-A-F+Tp","V-A-F+","1","3.8","5",0,1,0,0,0,1,0,0,0,1
"726","V+A+F-Tp","V+A+F-","0","16","20",0,0,0,1,0,1,0,0,0,0
"727","V+A+F+Ts","V+A+F+","1","16","20",0,0,0,1,0,1,0,0,0,0
"728","V+A-F+Tp","V+A-F+","1","16","5",0,1,0,0,0,1,0,0,0,1
"729","V+A-F-T0","V+A-F-","0","16","5",0,0,0,0,0,1,1,0,0,0
"730","V-A+F-Tp","V-A+F-","0","3.8","20",0,0,0,1,0,1,0,0,0,0
"731","V+A+F-Tp","V+A+F-","0","16","20",0,0,0,1,0,1,0,0,0,0
"732","V-A-F+Tp","V-A-F+","1","3.8","5",0,0,1,0,0,1,0,0,0,0
"733","V+A+F+T0","V+A+F+","1","16","20",0,0,0,0,0,0,0,1,0,0
"734","V-A+F+Ts","V-A+F+","1","3.8","20",0,1,0,0,0,1,0,0,0,1
"735","V-A+F-Ts","V-A+F-","0","3.8","20",0,0,0,1,0,1,0,0,0,0
"736","V+A-F+T0","V+A-F+","1","16","5",0,1,0,0,0,1,0,0,0,1
"737","V+A+F+Ts","V+A+F+","1","16","20",1,0,0,0,0,0,0,0,0,0
"738","V+A-F-Ts","V+A-F-","0","16","5",0,0,0,0,1,0,0,0,0,0
"739","V-A+F-T0","V-A+F-","0","3.8","20",0,0,0,0,1,1,0,0,0,0
"740","V-A+F+T0","V-A+F+","1","3.8","20",0,0,0,1,0,1,0,0,0,0
"741","V+A-F-Ts","V+A-F-","0","16","5",1,0,0,0,0,1,0,0,0,0
"742","V-A-F-Tp","V-A-F-","0","3.8","5",0,0,0,1,0,1,0,0,0,0
"743","V-A+F-Tp","V-A+F-","0","3.8","20",0,0,0,1,0,1,0,0,0,0
"744","V-A-F+Ts","V-A-F+","1","3.8","5",1,0,0,0,0,1,0,0,0,0
"745","V-A+F+T0","V-A+F+","1","3.8","20",0,0,0,1,0,1,0,0,0,0
"746","V-A-F+T0","V-A-F+","1","3.8","5",0,0,0,0,1,1,0,0,0,0
"747","V-A+F+T0","V-A+F+","1","3.8","20",0,0,0,0,1,1,0,0,0,0
"748","V-A-F+Ts","V-A-F+","1","3.8","5",0,1,0,0,0,1,0,0,0,1
"749","V+A-F-Tp","V+A-F-","0","16","5",0,0,0,0,0,1,1,0,0,0
"750","V+A-F+T0","V+A-F+","1","16","5",0,0,0,0,0,1,0,0,0,0
"751","V+A-F+Ts","V+A-F+","1","16","5",0,0,0,0,0,1,0,0,0,0
"752","V+A+F-T0","V+A+F-","0","16","20",0,0,0,0,0,1,0,0,1,0
"753","V-A+F+Ts","V-A+F+","1","3.8","20",0,0,0,1,0,1,0,0,0,0
"754","V-A-F-T0","V-A-F-","0","3.8","5",0,0,0,1,0,1,0,0,0,0
"755","V-A-F-Ts","V-A-F-","0","3.8","5",0,1,0,0,0,1,0,0,0,1
"756","V-A-F-Ts","V-A-F-","0","3.8","5",1,0,0,0,0,1,0,0,0,0
"757","V+A+F+Tp","V+A+F+","1","16","20",0,0,0,0,0,1,0,0,0,0
"758","V+A-F-Tp","V+A-F-","0","16","5",0,0,0,1,0,1,0,0,0,0
"759","V-A-F+Ts","V-A-F+","1","3.8","5",0,0,0,0,0,1,0,1,0,0
"760","V+A-F+Ts","V+A-F+","1","16","5",0,0,0,0,0,1,0,0,0,0
"761","V+A-F+T0","V+A-F+","1","16","5",0,0,0,0,0,0,0,0,0,0
"762","V+A-F+Tp","V+A-F+","1","16","5",0,0,0,0,0,1,0,0,0,0
"763","V+A-F-T0","V+A-F-","0","16","5",0,0,0,0,1,1,0,0,0,0
"764","V-A+F+Tp","V-A+F+","1","3.8","20",1,0,0,0,0,1,0,0,0,0
"765","V+A+F-T0","V+A+F-","0","16","20",0,0,0,0,0,1,1,0,0,0
"766","V-A-F-Ts","V-A-F-","0","3.8","5",0,0,0,1,0,1,0,0,0,0
"767","V-A+F-T0","V-A+F-","0","3.8","20",0,0,0,1,0,1,0,0,0,0
"768","V-A+F-Ts","V-A+F-","0","3.8","20",0,0,0,1,0,1,0,0,0,0
"769","V+A+F+Tp","V+A+F+","1","16","20",0,0,0,0,1,1,0,0,0,0
"770","V+A+F+T0","V+A+F+","1","16","20",0,0,0,0,1,0,0,0,0,0
"771","V+A+F-Tp","V+A+F-","0","16","20",0,0,0,0,1,0,0,0,0,0
"772","V+A+F+Tp","V+A+F+","1","16","20",0,0,0,0,0,0,0,0,0,0
"773","V+A+F-Ts","V+A+F-","0","16","20",0,0,0,0,0,1,0,0,0,0
"774","V-A+F-Ts","V-A+F-","0","3.8","20",0,0,1,0,0,1,0,0,0,0
"775","V-A-F-Tp","V-A-F-","0","3.8","5",0,0,1,0,0,1,0,0,0,0
"776","V+A-F+Tp","V+A-F+","1","16","5",0,0,1,0,0,0,0,0,0,0
"777","V+A+F-Ts","V+A+F-","0","16","20",0,0,0,1,0,1,0,0,0,0
"778","V-A+F+Tp","V-A+F+","1","3.8","20",0,0,0,0,0,1,0,0,0,0
"779","V-A-F-T0","V-A-F-","0","3.8","5",0,0,0,0,0,1,1,0,0,0
"780","V-A+F+Ts","V-A+F+","1","3.8","20",0,0,0,0,0,1,0,0,0,0
"781","V-A-F-Tp","V-A-F-","0","3.8","5",0,0,0,1,0,1,0,0,0,0
"782","V+A-F+Ts","V+A-F+","1","16","5",0,0,0,0,0,1,0,1,0,0
"783","V+A+F-T0","V+A+F-","0","16","20",0,0,0,0,0,1,1,0,0,0
"784","V+A+F+T0","V+A+F+","1","16","20",0,0,0,0,0,1,0,1,0,0
"785","V-A+F-T0","V-A+F-","0","3.8","20",0,1,0,0,0,1,0,0,0,1
"786","V+A-F-Ts","V+A-F-","0","16","5",0,0,1,0,0,1,0,0,0,0
"787","V-A+F+Tp","V-A+F+","1","3.8","20",0,0,1,0,0,1,0,0,0,0
"788","V-A-F-T0","V-A-F-","0","3.8","5",0,0,0,0,0,1,1,0,0,0
"789","V-A-F+Tp","V-A-F+","1","3.8","5",0,0,0,0,0,1,1,0,0,0
"790","V+A-F-T0","V+A-F-","0","16","5",0,0,0,0,0,1,1,0,0,0
"791","V+A+F-Ts","V+A+F-","0","16","20",1,0,0,0,0,1,0,0,0,0
"792","V-A+F-Tp","V-A+F-","0","3.8","20",0,0,0,1,0,1,0,0,0,0
"793","V+A-F-T0","V+A-F-","0","16","5",0,0,0,0,0,1,0,0,0,0
"794","V-A+F-T0","V-A+F-","0","3.8","20",0,0,0,0,0,1,1,0,0,0
"795","V-A+F+Tp","V-A+F+","1","3.8","20",0,0,0,0,1,1,0,0,0,0
"796","V+A-F-T0","V+A-F-","0","16","5",1,0,0,0,0,1,0,0,0,0
"797","V+A+F-Tp","V+A+F-","0","16","20",0,0,0,1,0,1,0,0,0,0
"798","V-A+F+Ts","V-A+F+","1","3.8","20",0,1,0,0,0,1,0,0,0,1
"799","V-A-F-T0","V-A-F-","0","3.8","5",0,0,0,0,1,1,0,0,0,0
"800","V-A+F+Tp","V-A+F+","1","3.8","20",0,0,1,0,0,1,0,0,0,0
"801","V-A-F-Tp","V-A-F-","0","3.8","5",0,0,0,0,1,1,0,0,0,0
"802","V-A+F+T0","V-A+F+","1","3.8","20",0,0,0,1,0,1,0,0,0,0
"803","V+A-F-Tp","V+A-F-","0","16","5",0,0,0,0,0,0,0,0,1,0
"804","V+A-F+Tp","V+A-F+","1","16","5",0,0,0,0,0,1,0,0,0,0
"805","V-A+F+Tp","V-A+F+","1","3.8","20",0,1,0,0,0,1,0,0,0,1
"806","V+A+F-T0","V+A+F-","0","16","20",0,0,0,0,0,1,0,0,0,0
"807","V+A-F+Ts","V+A-F+","1","16","5",0,0,0,0,0,1,0,0,0,0
"808","V+A-F+Ts","V+A-F+","1","16","5",1,0,0,0,0,1,0,0,0,0
"809","V+A-F+T0","V+A-F+","1","16","5",0,0,0,0,1,1,0,0,0,0
"810","V-A-F+Tp","V-A-F+","1","3.8","5",0,0,0,0,1,1,0,0,0,0
"811","V-A-F+Ts","V-A-F+","1","3.8","5",1,0,0,0,0,1,0,0,0,0
"812","V-A-F-Ts","V-A-F-","0","3.8","5",0,0,1,0,0,1,0,0,0,0
"813","V-A-F-Ts","V-A-F-","0","3.8","5",0,0,0,0,1,1,0,0,0,0
"814","V-A+F+T0","V-A+F+","1","3.8","20",0,0,0,0,0,1,1,0,0,0
"815","V+A+F-Ts","V+A+F-","0","16","20",0,0,0,0,0,1,0,0,1,0
"816","V-A+F-T0","V-A+F-","0","3.8","20",0,0,0,0,1,1,0,0,0,0
"817","V-A-F+Tp","V-A-F+","1","3.8","5",1,0,0,0,0,1,0,0,0,0
"818","V+A-F+Tp","V+A-F+","1","16","5",0,0,0,0,0,1,0,0,1,0
"819","V-A+F-Ts","V-A+F-","0","3.8","20",0,0,1,0,0,1,0,0,0,0
"820","V+A+F+Ts","V+A+F+","1","16","20",0,0,0,0,0,1,0,0,0,0
"821","V-A+F-Ts","V-A+F-","0","3.8","20",0,0,1,0,0,1,0,0,0,0
"822","V+A+F-Tp","V+A+F-","0","16","20",0,0,0,1,0,1,0,0,0,0
"823","V-A-F+T0","V-A-F+","1","3.8","5",0,0,0,0,0,1,0,0,1,0
"824","V-A+F+Ts","V-A+F+","1","3.8","20",0,0,0,0,1,1,0,0,0,0
"825","V+A-F+Ts","V+A-F+","1","16","5",1,0,0,0,0,1,0,0,0,0
"826","V+A-F+T0","V+A-F+","1","16","5",0,0,0,0,0,1,0,0,0,0
"827","V+A+F-Ts","V+A+F-","0","16","20",0,0,0,1,0,1,0,0,0,0
"828","V-A+F+Ts","V-A+F+","1","3.8","20",0,0,1,0,0,1,0,0,0,0
"829","V+A+F+T0","V+A+F+","1","16","20",0,0,0,0,0,1,0,0,0,0
"830","V+A+F+Tp","V+A+F+","1","16","20",0,0,0,0,0,1,0,0,0,0
"831","V+A-F-T0","V+A-F-","0","16","5",0,0,0,0,0,1,0,0,1,0
"832","V+A+F-Ts","V+A+F-","0","16","20",0,0,0,1,0,1,0,0,0,0
"833","V+A-F-Ts","V+A-F-","0","16","5",0,0,0,0,0,1,0,0,1,0
"834","V-A-F-T0","V-A-F-","0","3.8","5",0,0,1,0,0,1,0,0,0,0
"835","V+A-F-Tp","V+A-F-","0","16","5",0,0,0,0,0,1,0,0,0,0
"836","V-A+F-Tp","V-A+F-","0","3.8","20",0,1,0,0,0,1,0,0,0,1
"837","V+A+F-Tp","V+A+F-","0","16","20",0,0,0,1,0,1,0,0,0,0
"838","V-A-F+T0","V-A-F+","1","3.8","5",1,0,0,0,0,1,0,0,0,0
"839","V-A-F+Ts","V-A-F+","1","3.8","5",0,0,0,0,1,1,0,0,0,0
"840","V+A+F+T0","V+A+F+","1","16","20",0,0,0,0,0,1,0,0,0,0
"841","V-A-F-Ts","V-A-F-","0","3.8","5",0,0,0,1,0,1,0,0,0,0
"842","V-A+F+T0","V-A+F+","1","3.8","20",0,0,0,0,0,1,0,0,0,0
"843","V-A-F-Tp","V-A-F-","0","3.8","5",0,0,0,0,0,1,0,0,1,0
"844","V+A+F-T0","V+A+F-","0","16","20",0,0,0,1,0,1,0,0,0,0
"845","V+A+F+Ts","V+A+F+","1","16","20",0,0,0,1,0,1,0,0,0,0
"846","V-A+F-Tp","V-A+F-","0","3.8","20",0,1,0,0,0,1,0,0,0,1
"847","V+A-F-Ts","V+A-F-","0","16","5",0,0,0,0,0,1,0,1,0,0
"848","V+A+F+Tp","V+A+F+","1","16","20",0,0,0,1,0,1,0,0,0,0
"849","V+A-F-Tp","V+A-F-","0","16","5",0,0,0,1,0,1,0,0,0,0
"850","V+A+F+Tp","V+A+F+","1","16","20",0,0,0,0,0,1,0,0,0,0
"851","V+A+F+T0","V+A+F+","1","16","20",0,0,0,0,0,1,0,0,0,0
"852","V+A-F+T0","V+A-F+","1","16","5",1,0,0,0,0,1,0,0,0,0
"853","V+A-F-Ts","V+A-F-","0","16","5",0,0,0,0,0,1,0,0,1,0
"854","V-A-F+Tp","V-A-F+","1","3.8","5",0,0,0,0,0,1,0,0,1,0
"855","V-A-F-Tp","V-A-F-","0","3.8","5",0,0,0,1,0,1,0,0,0,0
"856","V+A-F+Tp","V+A-F+","1","16","5",0,0,0,0,0,1,0,0,0,0
"857","V-A-F+Ts","V-A-F+","1","3.8","5",0,0,1,0,0,1,0,0,0,0
"858","V-A+F-Tp","V-A+F-","0","3.8","20",0,1,0,0,0,1,0,0,0,1
"859","V-A-F+T0","V-A-F+","1","3.8","5",1,0,0,0,0,1,0,0,0,0
"860","V+A+F+Ts","V+A+F+","1","16","20",0,0,0,0,0,1,0,0,0,0
"861","V+A+F-T0","V+A+F-","0","16","20",0,0,0,0,0,1,0,0,1,0
"862","V-A+F-Ts","V-A+F-","0","3.8","20",0,1,0,0,0,1,0,0,0,1
"863","V-A-F-T0","V-A-F-","0","3.8","5",1,0,0,0,0,1,0,0,0,0
"864","V-A+F-T0","V-A+F-","0","3.8","20",0,1,0,0,0,1,0,0,0,1
"865","V-A-F+T0","V-A-F+","1","3.8","5",0,0,0,0,1,1,0,0,0,0
"866","V+A-F-T0","V+A-F-","0","16","5",0,0,0,0,0,1,0,0,0,0
"867","V-A+F+Tp","V-A+F+","1","3.8","20",0,0,0,1,0,1,0,0,0,0
"868","V-A-F-T0","V-A-F-","0","3.8","5",0,0,0,0,0,1,0,0,1,0
"869","V-A-F-Tp","V-A-F-","0","3.8","5",0,0,0,0,0,1,1,0,0,0
"870","V-A-F+Tp","V-A-F+","1","3.8","5",0,1,0,0,0,1,0,0,0,1
"871","V+A-F+Tp","V+A-F+","1","16","5",0,0,0,0,1,1,0,0,0,0
"872","V+A+F-Tp","V+A+F-","0","16","20",0,0,0,0,0,1,0,1,0,0
"873","V+A-F+Ts","V+A-F+","1","16","5",0,1,0,0,0,1,0,0,0,1
"874","V-A+F-Ts","V-A+F-","0","3.8","20",0,0,0,1,0,1,0,0,0,0
"875","V+A+F+Tp","V+A+F+","1","16","20",1,0,0,0,0,1,0,0,0,0
"876","V-A+F+Ts","V-A+F+","1","3.8","20",0,1,0,0,0,1,0,0,0,1
"877","V+A-F-Tp","V+A-F-","0","16","5",0,0,0,0,0,1,0,0,0,0
"878","V+A+F+T0","V+A+F+","1","16","20",0,0,0,0,0,1,0,1,0,0
"879","V+A+F+Tp","V+A+F+","1","16","20",0,0,1,0,0,1,0,0,0,0
"880","V+A-F+T0","V+A-F+","1","16","5",0,0,0,0,0,1,1,0,0,0
"881","V-A-F-T0","V-A-F-","0","3.8","5",0,0,0,0,0,1,0,1,0,0
"882","V-A+F+Ts","V-A+F+","1","3.8","20",0,1,0,0,0,1,0,0,0,1
"883","V+A+F-Tp","V+A+F-","0","16","20",0,0,1,0,0,1,0,0,0,0
"884","V+A+F-T0","V+A+F-","0","16","20",0,1,0,0,0,1,0,0,0,1
"885","V+A+F-T0","V+A+F-","0","16","20",0,1,0,0,0,1,0,0,0,1
"886","V-A+F-Tp","V-A+F-","0","3.8","20",0,1,0,0,0,1,0,0,0,1
"887","V-A-F-Ts","V-A-F-","0","3.8","5",0,1,0,0,0,1,0,0,0,1
"888","V-A+F+Tp","V-A+F+","1","3.8","20",0,0,0,0,1,1,0,0,0,0
"889","V-A-F+Tp","V-A-F+","1","3.8","5",0,0,0,1,0,1,0,0,0,0
"890","V+A+F+T0","V+A+F+","1","16","20",0,0,0,0,1,1,0,0,0,0
"891","V-A-F+T0","V-A-F+","1","3.8","5",0,1,0,0,0,1,0,0,0,1
"892","V+A-F+T0","V+A-F+","1","16","5",0,0,0,0,0,1,0,1,0,0
"893","V+A+F-Ts","V+A+F-","0","16","20",0,0,0,1,0,1,0,0,0,0
"894","V+A+F-T0","V+A+F-","0","16","20",0,0,0,1,0,1,0,0,0,0
"895","V+A-F+T0","V+A-F+","1","16","5",0,0,0,0,0,1,1,0,0,0
"896","V+A-F+Tp","V+A-F+","1","16","5",1,0,0,0,0,1,0,0,0,0
"897","V-A+F-Ts","V-A+F-","0","3.8","20",0,0,0,1,0,1,0,0,0,0
"898","V+A+F-Ts","V+A+F-","0","16","20",0,0,0,0,0,1,0,0,0,0
"899","V+A+F-Tp","V+A+F-","0","16","20",0,1,0,0,0,1,0,0,0,1
"900","V-A+F+Ts","V-A+F+","1","3.8","20",0,0,0,1,0,1,0,0,0,0
"901","V-A-F+Ts","V-A-F+","1","3.8","5",0,0,1,0,0,1,0,0,0,0
"902","V-A+F+T0","V-A+F+","1","3.8","20",1,0,0,0,0,1,0,0,0,0
"903","V+A+F+Ts","V+A+F+","1","16","20",0,0,0,0,0,1,0,0,0,0
"904","V-A-F+Ts","V-A-F+","1","3.8","5",0,1,0,0,0,1,0,0,0,1
"905","V-A-F-Tp","V-A-F-","0","3.8","5",0,0,1,0,0,1,0,0,0,0
"906","V-A-F-T0","V-A-F-","0","3.8","5",0,1,0,0,0,1,0,0,0,1
"907","V-A-F-Tp","V-A-F-","0","3.8","5",0,0,0,0,0,1,0,1,0,0
"908","V-A+F-Tp","V-A+F-","0","3.8","20",0,0,1,0,0,1,0,0,0,0
"909","V+A-F-Ts","V+A-F-","0","16","5",0,0,0,0,0,1,1,0,0,0
"910","V+A-F-Ts","V+A-F-","0","16","5",0,0,0,0,0,1,1,0,0,0
"911","V+A-F+Ts","V+A-F+","1","16","5",0,0,0,1,0,1,0,0,0,0
"912","V-A+F-Ts","V-A+F-","0","3.8","20",0,0,1,0,0,1,0,0,0,0
"913","V+A+F+Ts","V+A+F+","1","16","20",0,0,0,0,0,1,0,0,0,0
"914","V+A-F+Tp","V+A-F+","1","16","5",0,0,0,0,0,1,0,1,0,0
"915","V-A-F+Ts","V-A-F+","1","3.8","5",0,1,0,0,0,1,0,0,0,1
"916","V-A+F-T0","V-A+F-","0","3.8","20",0,0,0,0,0,1,0,0,1,0
"917","V+A-F+Ts","V+A-F+","1","16","5",0,0,0,0,0,1,1,0,0,0
"918","V-A-F-Ts","V-A-F-","0","3.8","5",0,0,0,1,0,1,0,0,0,0
"919","V-A+F+T0","V-A+F+","1","3.8","20",0,1,0,0,0,1,0,0,0,1
"920","V-A+F-T0","V-A+F-","0","3.8","20",0,1,0,0,0,1,0,0,0,1
"921","V-A-F+T0","V-A-F+","1","3.8","5",0,0,0,1,0,1,0,0,0,0
"922","V+A-F-T0","V+A-F-","0","16","5",0,0,0,0,0,1,0,1,0,0
"923","V+A+F-Ts","V+A+F-","0","16","20",0,0,0,0,0,1,0,1,0,0
"924","V-A+F+Tp","V-A+F+","1","3.8","20",0,0,0,0,0,1,0,1,0,0
"925","V+A-F-Ts","V+A-F-","0","16","5",0,0,0,1,0,1,0,0,0,0
"926","V+A-F-Tp","V+A-F-","0","16","5",0,1,0,0,0,1,0,0,0,1
"927","V+A+F+Ts","V+A+F+","1","16","20",1,0,0,0,0,1,0,0,0,0
"928","V+A+F+T0","V+A+F+","1","16","20",0,1,0,0,0,1,0,0,0,1
"929","V-A-F-Ts","V-A-F-","0","3.8","5",0,1,0,0,0,1,0,0,0,1
"930","V-A-F+Tp","V-A-F+","1","3.8","5",1,0,0,0,0,1,0,0,0,0
"931","V-A+F-T0","V-A+F-","0","3.8","20",0,0,0,0,0,1,0,1,0,0
"932","V+A+F+Tp","V+A+F+","1","16","20",0,0,0,0,0,1,0,0,0,0
"933","V-A+F+T0","V-A+F+","1","3.8","20",0,0,0,1,0,1,0,0,0,0
"934","V+A-F-Tp","V+A-F-","0","16","5",0,0,0,0,1,1,0,0,0,0
"935","V-A+F-Tp","V-A+F-","0","3.8","20",0,1,0,0,0,1,0,0,0,1
"936","V+A-F-T0","V+A-F-","0","16","5",0,0,0,0,0,1,0,0,0,0
"937","V-A-F-Tp","V-A-F-","0","3.8","5",0,0,0,0,0,1,0,0,1,0
"938","V+A-F+T0","V+A-F+","1","16","5",0,0,0,0,0,1,0,0,1,0
"939","V+A-F-Tp","V+A-F-","0","16","5",0,0,0,0,0,1,0,0,1,0
"940","V+A-F+T0","V+A-F+","1","16","5",0,0,0,0,0,1,0,0,1,0
"941","V+A-F+Ts","V+A-F+","1","16","5",0,0,0,0,0,1,0,0,1,0
"942","V+A+F+Ts","V+A+F+","1","16","20",0,0,0,0,0,1,0,0,1,0
"943","V+A+F+T0","V+A+F+","1","16","20",0,1,0,0,0,1,0,0,0,1
"944","V-A-F+T0","V-A-F+","1","3.8","5",0,1,0,0,0,1,0,0,0,1
"945","V+A-F+Tp","V+A-F+","1","16","5",0,0,0,0,0,1,0,0,1,0
"946","V+A-F+Ts","V+A-F+","1","16","5",0,0,0,0,0,1,0,0,1,0
"947","V+A+F+Ts","V+A+F+","1","16","20",0,1,0,0,0,1,0,0,0,1
"948","V+A+F-T0","V+A+F-","0","16","20",0,1,0,0,0,1,0,0,0,1
"949","V-A-F+T0","V-A-F+","1","3.8","5",0,1,0,0,0,1,0,0,0,1
"950","V-A-F+Tp","V-A-F+","1","3.8","5",0,0,0,0,0,1,0,0,1,0
"951","V+A-F-T0","V+A-F-","0","16","5",0,1,0,0,0,1,0,0,0,1
"952","V+A-F-Tp","V+A-F-","0","16","5",0,0,0,0,0,1,0,0,1,0
"953","V-A-F-Tp","V-A-F-","0","3.8","5",0,0,0,0,0,1,0,0,1,0
"954","V-A-F+Ts","V-A-F+","1","3.8","5",0,0,0,0,0,1,0,0,1,0
"955","V-A+F+T0","V-A+F+","1","3.8","20",0,1,0,0,0,1,0,0,0,1
"956","V-A+F-Tp","V-A+F-","0","3.8","20",0,1,0,0,0,1,0,0,0,1
"957","V-A-F+Ts","V-A-F+","1","3.8","5",0,0,0,0,0,1,0,0,1,0
"958","V+A+F+T0","V+A+F+","1","16","20",0,0,0,0,0,1,0,0,1,0
"959","V+A-F+Tp","V+A-F+","1","16","5",0,0,0,0,0,1,0,0,1,0
"960","V+A+F+T0","V+A+F+","1","16","20",0,0,0,0,0,1,0,0,1,0
"961","V+A-F+Tp","V+A-F+","1","16","5",0,0,0,0,0,1,0,0,1,0
"962","V-A-F-Ts","V-A-F-","0","3.8","5",0,0,0,0,0,1,0,0,1,0
"963","V+A+F-Ts","V+A+F-","0","16","20",0,1,0,0,0,1,0,0,0,1
"964","V+A-F-T0","V+A-F-","0","16","5",0,0,0,0,0,1,0,0,1,0
"965","V-A+F-Tp","V-A+F-","0","3.8","20",0,1,0,0,0,1,0,0,0,1
"966","V-A+F+Ts","V-A+F+","1","3.8","20",0,1,0,0,0,1,0,0,0,1
"967","V+A-F-T0","V+A-F-","0","16","5",0,0,0,0,0,1,0,0,1,0
"968","V+A+F+Tp","V+A+F+","1","16","20",0,0,0,0,0,1,0,0,1,0
"969","V-A+F+Tp","V-A+F+","1","3.8","20",0,1,0,0,0,1,0,0,0,1
"970","V-A+F-Tp","V-A+F-","0","3.8","20",0,1,0,0,0,1,0,0,0,1
"971","V+A+F+Tp","V+A+F+","1","16","20",0,0,0,0,0,1,0,0,1,0
"972","V-A+F+T0","V-A+F+","1","3.8","20",0,1,0,0,0,1,0,0,0,1
"973","V-A-F-Tp","V-A-F-","0","3.8","5",0,0,0,0,0,1,0,0,1,0
"974","V-A+F+Ts","V-A+F+","1","3.8","20",0,1,0,0,0,1,0,0,0,1
"975","V-A-F+Tp","V-A-F+","1","3.8","5",0,0,0,0,0,1,0,0,1,0
"976","V-A-F-T0","V-A-F-","0","3.8","5",0,0,0,0,0,1,0,0,1,0
"977","V-A+F-T0","V-A+F-","0","3.8","20",0,1,0,0,0,1,0,0,0,1
"978","V+A+F-Tp","V+A+F-","0","16","20",0,0,0,0,0,1,0,0,1,0
"979","V-A-F+T0","V-A-F+","1","3.8","5",0,0,0,0,0,1,0,0,1,0
"980","V-A+F-T0","V-A+F-","0","3.8","20",0,1,0,0,0,1,0,0,0,1
"981","V-A+F-T0","V-A+F-","0","3.8","20",0,1,0,0,0,1,0,0,0,1
"982","V+A+F+Tp","V+A+F+","1","16","20",0,0,0,0,0,1,0,0,1,0
"983","V-A+F+T0","V-A+F+","1","3.8","20",0,1,0,0,0,1,0,0,0,1
"984","V-A-F-T0","V-A-F-","0","3.8","5",0,1,0,0,0,1,0,0,0,1
"985","V-A+F+Tp","V-A+F+","1","3.8","20",0,0,0,0,0,1,0,0,1,0
"986","V-A+F+Tp","V-A+F+","1","3.8","20",0,0,0,0,0,1,0,0,1,0
"987","V+A-F+Ts","V+A-F+","1","16","5",0,0,0,0,0,1,0,0,1,0
"988","V+A+F-T0","V+A+F-","0","16","20",0,1,0,0,0,1,0,0,0,1
"989","V-A+F-Ts","V-A+F-","0","3.8","20",0,1,0,0,0,1,0,0,0,1
"990","V+A+F+Ts","V+A+F+","1","16","20",0,0,0,0,0,1,0,0,1,0
"991","V+A-F-Tp","V+A-F-","0","16","5",0,0,0,0,0,1,0,0,1,0
"992","V+A-F-Ts","V+A-F-","0","16","5",0,0,0,0,0,1,0,0,1,0
"993","V+A-F-Ts","V+A-F-","0","16","5",0,0,0,0,0,1,0,0,1,0
"994","V+A-F+T0","V+A-F+","1","16","5",0,0,0,0,0,1,0,0,1,0
"995","V-A-F+Tp","V-A-F+","1","3.8","5",0,0,0,0,0,1,0,0,1,0
"996","V-A+F-Ts","V-A+F-","0","3.8","20",0,1,0,0,0,1,0,0,0,1
"997","V+A+F-Tp","V+A+F-","0","16","20",0,0,0,0,0,1,0,0,1,0
"998","V-A-F-Ts","V-A-F-","0","3.8","5",0,0,0,0,0,1,0,0,1,0
"999","V+A+F-Ts","V+A+F-","0","16","20",0,0,0,0,0,1,0,0,1,0
"1000","V+A+F-Ts","V+A+F-","0","16","20",0,0,0,0,0,1,0,0,1,0
"1001","V-A+F+Ts","V-A+F+","1","3.8","20",0,1,0,0,0,1,0,0,0,1
"1002","V-A+F-Ts","V-A+F-","0","3.8","20",0,1,0,0,0,1,0,0,0,1
"1003","V+A-F-Ts","V+A-F-","0","16","5",0,0,0,0,0,1,0,0,1,0
"1004","V+A+F-T0","V+A+F-","0","16","20",0,0,0,0,0,1,0,0,1,0
"1005","V-A-F-T0","V-A-F-","0","3.8","5",0,1,0,0,0,1,0,0,0,1
"1006","V-A-F+Ts","V-A-F+","1","3.8","5",0,1,0,0,0,1,0,0,0,1
"1007","V-A-F-Ts","V-A-F-","0","3.8","5",0,1,0,0,0,1,0,0,0,1
"1008","V+A+F-Tp","V+A+F-","0","16","20",0,0,0,0,0,1,0,0,1,0
"1009","V-A+F+Ts","V-A+F+","1","3.8","20",1,0,0,0,0,1,0,0,0,0
"1010","V+A+F+T0","V+A+F+","1","16","20",0,0,0,0,0,1,0,0,0,0
"1011","V-A-F-Tp","V-A-F-","0","3.8","5",0,0,1,0,0,1,0,0,0,0
"1012","V+A+F+T0","V+A+F+","1","16","20",0,0,0,0,0,1,0,1,0,0
"1013","V+A-F-Tp","V+A-F-","0","16","5",0,0,1,0,0,1,0,0,0,0
"1014","V-A-F-Tp","V-A-F-","0","3.8","5",0,1,0,0,0,1,0,0,0,1
"1015","V+A-F+T0","V+A-F+","1","16","5",0,0,0,0,0,1,0,0,0,0
"1016","V-A+F-T0","V-A+F-","0","3.8","20",1,0,0,0,0,1,0,0,0,0
"1017","V+A-F+Ts","V+A-F+","1","16","5",0,0,0,0,0,1,0,0,0,0
"1018","V-A+F+Tp","V-A+F+","1","3.8","20",1,0,0,0,0,1,0,0,0,0
"1019","V+A+F+Ts","V+A+F+","1","16","20",0,0,0,0,0,1,0,0,0,0
"1020","V+A+F-Tp","V+A+F-","0","16","20",0,1,0,0,0,1,0,0,0,1
"1021","V+A-F+Ts","V+A-F+","1","16","5",0,0,0,0,0,1,0,0,0,0
"1022","V+A-F-Ts","V+A-F-","0","16","5",0,0,0,0,0,1,0,1,0,0
"1023","V-A-F+T0","V-A-F+","1","3.8","5",0,0,0,0,0,1,1,0,0,0
"1024","V-A+F+Ts","V-A+F+","1","3.8","20",1,0,0,0,0,1,0,0,0,0
"1025","V-A-F-T0","V-A-F-","0","3.8","5",0,1,0,0,0,1,0,0,0,1
"1026","V-A+F-Ts","V-A+F-","0","3.8","20",0,0,0,0,1,1,0,0,0,0
"1027","V+A+F+T0","V+A+F+","1","16","20",0,0,0,0,0,1,0,0,0,0
"1028","V+A+F+Tp","V+A+F+","1","16","20",0,0,1,0,0,1,0,0,0,0
"1029","V+A+F-T0","V+A+F-","0","16","20",0,0,0,1,0,1,0,0,0,0
"1030","V+A+F-T0","V+A+F-","0","16","20",0,1,0,0,0,1,0,0,0,1
"1031","V+A-F+Ts","V+A-F+","1","16","5",0,0,0,0,0,1,0,0,0,0
"1032","V-A-F+Ts","V-A-F+","1","3.8","5",0,0,1,0,0,1,0,0,0,0
"1033","V-A-F+Tp","V-A-F+","1","3.8","5",0,1,0,0,0,1,0,0,0,1
"1034","V-A-F-Ts","V-A-F-","0","3.8","5",0,0,1,0,0,1,0,0,0,0
"1035","V+A-F-Tp","V+A-F-","0","16","5",0,0,0,0,1,1,0,0,0,0
"1036","V+A-F-Ts","V+A-F-","0","16","5",0,0,0,0,0,1,0,0,0,0
"1037","V-A-F-T0","V-A-F-","0","3.8","5",0,0,0,0,0,1,1,0,0,0
"1038","V-A+F+Tp","V-A+F+","1","3.8","20",1,0,0,0,0,1,0,0,0,0
"1039","V+A-F-T0","V+A-F-","0","16","5",0,0,0,0,0,1,0,0,0,0
"1040","V+A+F+Ts","V+A+F+","1","16","20",0,0,0,0,0,1,1,0,0,0
"1041","V-A-F+Ts","V-A-F+","1","3.8","5",0,0,1,0,0,1,0,0,0,0
"1042","V-A+F+Ts","V-A+F+","1","3.8","20",1,0,0,0,0,1,0,0,0,0
"1043","V-A+F-Tp","V-A+F-","0","3.8","20",0,0,0,0,1,1,0,0,0,0
"1044","V-A+F-T0","V-A+F-","0","3.8","20",0,1,0,0,0,1,0,0,0,1
"1045","V-A+F+Tp","V-A+F+","1","3.8","20",0,0,0,0,1,1,0,0,0,0
"1046","V+A-F+Tp","V+A-F+","1","16","5",0,0,0,0,0,1,0,0,0,0
"1047","V+A-F-Tp","V+A-F-","0","16","5",0,0,1,0,0,1,0,0,0,0
"1048","V-A+F-Tp","V-A+F-","0","3.8","20",0,0,0,0,1,1,0,0,0,0
"1049","V-A-F+T0","V-A-F+","1","3.8","5",0,1,0,0,0,1,0,0,0,1
"1050","V-A+F-T0","V-A+F-","0","3.8","20",1,0,0,0,0,1,0,0,0,0
"1051","V-A-F+T0","V-A-F+","1","3.8","5",0,1,0,0,0,1,0,0,0,1
"1052","V-A-F+Ts","V-A-F+","1","3.8","5",0,0,1,0,0,1,0,0,0,0
"1053","V+A+F-T0","V+A+F-","0","16","20",1,0,0,0,0,1,0,0,0,0
"1054","V+A-F-Ts","V+A-F-","0","16","5",0,0,0,0,0,1,0,0,0,0
"1055","V+A+F+Tp","V+A+F+","1","16","20",1,0,0,0,0,1,0,0,0,0
"1056","V-A-F-Tp","V-A-F-","0","3.8","5",0,1,0,0,0,1,0,0,0,1
"1057","V-A-F-Ts","V-A-F-","0","3.8","5",0,0,1,0,0,1,0,0,0,0
"1058","V+A-F+T0","V+A-F+","1","16","5",0,0,0,0,0,1,0,0,0,0
"1059","V-A+F-Ts","V-A+F-","0","3.8","20",1,0,0,0,0,1,0,0,0,0
"1060","V+A+F-Tp","V+A+F-","0","16","20",0,1,0,0,0,1,0,0,0,1
"1061","V+A+F+Tp","V+A+F+","1","16","20",0,0,0,0,0,1,1,0,0,0
"1062","V-A-F+Tp","V-A-F+","1","3.8","5",0,0,0,0,1,1,0,0,0,0
"1063","V-A-F-T0","V-A-F-","0","3.8","5",0,0,1,0,0,1,0,0,0,0
"1064","V-A+F-Tp","V-A+F-","0","3.8","20",1,0,0,0,0,1,0,0,0,0
"1065","V-A-F-Ts","V-A-F-","0","3.8","5",0,1,0,0,0,1,0,0,0,1
"1066","V-A+F+T0","V-A+F+","1","3.8","20",1,0,0,0,0,1,0,0,0,0
"1067","V+A+F-Ts","V+A+F-","0","16","20",1,0,0,0,0,1,0,0,0,0
"1068","V+A-F+T0","V+A-F+","1","16","5",0,0,0,0,0,1,0,0,1,0
"1069","V+A-F-T0","V+A-F-","0","16","5",0,0,0,0,0,1,0,0,0,0
"1070","V+A+F+Ts","V+A+F+","1","16","20",0,0,0,0,0,1,0,0,0,0
"1071","V+A-F+Tp","V+A-F+","1","16","5",0,0,0,0,0,1,0,0,0,0
"1072","V+A+F-Ts","V+A+F-","0","16","20",0,0,0,0,0,1,1,0,0,0
"1073","V-A+F+T0","V-A+F+","1","3.8","20",1,0,0,0,0,1,0,0,0,0
"1074","V-A+F-Ts","V-A+F-","0","3.8","20",1,0,0,0,0,1,0,0,0,0
"1075","V+A-F+Tp","V+A-F+","1","16","5",0,0,0,0,0,1,0,0,0,0
"1076","V-A+F+T0","V-A+F+","1","3.8","20",1,0,0,0,0,1,0,0,0,0
"1077","V+A-F-T0","V+A-F-","0","16","5",0,0,0,0,0,1,0,0,0,0
"1078","V+A+F-Ts","V+A+F-","0","16","20",1,0,0,0,0,1,0,0,0,0
"1079","V+A+F-Tp","V+A+F-","0","16","20",1,0,0,0,0,1,0,0,0,0
"1080","V-A-F+Tp","V-A-F+","1","3.8","5",0,1,0,0,0,1,0,0,0,1
"1081","V+A+F-Ts","V+A+F-","0","16","20",0,0,0,0,0,1,1,0,0,0
"1082","V+A-F-Tp","V+A-F-","0","16","5",1,0,0,0,0,1,0,0,0,0
"1083","V+A-F+Ts","V+A-F+","1","16","5",0,0,1,0,0,1,0,0,0,0
"1084","V+A-F+T0","V+A-F+","1","16","5",0,0,0,0,0,1,0,0,0,0
"1085","V+A+F-Tp","V+A+F-","0","16","20",0,1,0,0,0,1,0,0,0,1
"1086","V+A+F+Tp","V+A+F+","1","16","20",0,1,0,0,0,1,0,0,0,1
"1087","V+A+F-T0","V+A+F-","0","16","20",0,0,0,0,0,1,1,0,0,0
"1088","V+A+F-Tp","V+A+F-","0","16","20",0,0,1,0,0,1,0,0,0,0
"1089","V+A-F-Tp","V+A-F-","0","16","5",1,0,0,0,0,1,0,0,0,0
"1090","V+A+F+Tp","V+A+F+","1","16","20",0,0,0,0,0,1,1,0,0,0
"1091","V+A+F+Ts","V+A+F+","1","16","20",0,0,0,0,0,1,1,0,0,0
"1092","V+A-F+Tp","V+A-F+","1","16","5",0,0,0,0,0,1,0,0,1,0
"1093","V+A-F-T0","V+A-F-","0","16","5",0,0,0,1,0,1,0,0,0,0
"1094","V+A-F+Ts","V+A-F+","1","16","5",0,0,1,0,0,1,0,0,0,0
"1095","V+A+F-T0","V+A+F-","0","16","20",1,0,0,0,0,1,0,0,0,0
"1096","V+A+F+Ts","V+A+F+","1","16","20",1,0,0,0,0,1,0,0,0,0
"1097","V+A+F-Tp","V+A+F-","0","16","20",0,0,0,0,0,1,1,0,0,0
"1098","V+A-F+T0","V+A-F+","1","16","5",1,0,0,0,0,1,0,0,0,0
"1099","V+A+F-T0","V+A+F-","0","16","20",0,0,0,0,0,1,1,0,0,0
"1100","V+A+F+Tp","V+A+F+","1","16","20",0,0,0,1,0,1,0,0,0,0
"1101","V+A-F+Tp","V+A-F+","1","16","5",1,0,0,0,0,1,0,0,0,0
"1102","V+A+F+Ts","V+A+F+","1","16","20",0,0,0,0,0,1,1,0,0,0
"1103","V+A-F+Ts","V+A-F+","1","16","5",0,0,0,1,0,1,0,0,0,0
"1104","V+A-F-Tp","V+A-F-","0","16","5",0,0,1,0,0,1,0,0,0,0
"1105","V+A+F+T0","V+A+F+","1","16","20",0,0,0,1,0,1,0,0,0,0
"1106","V+A-F-T0","V+A-F-","0","16","5",0,0,0,0,0,1,0,0,1,0
"1107","V+A+F+T0","V+A+F+","1","16","20",0,1,0,0,0,1,0,0,0,1
"1108","V+A-F+Tp","V+A-F+","1","16","5",0,0,0,0,0,1,0,1,0,0
"1109","V+A+F-Ts","V+A+F-","0","16","20",0,0,1,0,0,1,0,0,0,0
"1110","V+A-F-Ts","V+A-F-","0","16","5",0,0,0,0,0,1,1,0,0,0
"1111","V+A-F-Ts","V+A-F-","0","16","5",1,0,0,0,0,1,0,0,0,0
"1112","V+A+F-Ts","V+A+F-","0","16","20",0,1,0,0,0,1,0,0,0,1
"1113","V+A+F+T0","V+A+F+","1","16","20",0,0,0,0,0,1,0,0,0,0
"1114","V+A-F-T0","V+A-F-","0","16","5",1,0,0,0,0,1,0,0,0,0
"1115","V+A-F-Ts","V+A-F-","0","16","5",0,0,0,1,0,1,0,0,0,0
"1116","V+A-F+T0","V+A-F+","1","16","5",1,0,0,0,0,1,0,0,0,0
"1117","V-A+F+Tp","V-A+F+","1","3.8","20",0,0,1,0,0,1,0,0,0,0
"1118","V-A-F-Ts","V-A-F-","0","3.8","5",0,0,1,0,0,0,0,0,0,0
"1119","V-A+F+T0","V-A+F+","1","3.8","20",0,1,0,0,0,1,0,0,0,1
"1120","V-A-F+Tp","V-A-F+","1","3.8","5",0,0,0,0,1,1,0,0,0,0
"1121","V-A-F+Ts","V-A-F+","1","3.8","5",0,0,0,0,1,1,0,0,0,0
"1122","V-A+F-T0","V-A+F-","0","3.8","20",0,0,0,1,0,0,0,0,0,0
"1123","V-A-F+Tp","V-A-F+","1","3.8","5",0,0,0,0,0,1,1,0,0,0
"1124","V-A-F+T0","V-A-F+","1","3.8","5",0,0,0,0,0,1,0,0,0,0
"1125","V-A-F+T0","V-A-F+","1","3.8","5",0,0,0,0,0,1,0,0,0,0
"1126","V-A+F+Ts","V-A+F+","1","3.8","20",0,0,0,1,0,1,0,0,0,0
"1127","V-A+F-Ts","V-A+F-","0","3.8","20",0,0,0,1,0,1,0,0,0,0
"1128","V-A-F-Tp","V-A-F-","0","3.8","5",0,0,0,0,0,1,1,0,0,0
"1129","V-A-F-T0","V-A-F-","0","3.8","5",0,1,0,0,0,1,0,0,0,1
"1130","V-A+F-T0","V-A+F-","0","3.8","20",0,1,0,0,0,1,0,0,0,1
"1131","V-A+F-Tp","V-A+F-","0","3.8","20",0,0,0,0,0,1,1,0,0,0
"1132","V-A-F+Ts","V-A-F+","1","3.8","5",0,0,0,0,0,1,0,0,1,0
"1133","V-A-F-T0","V-A-F-","0","3.8","5",0,1,0,0,0,1,0,0,0,1
"1134","V-A-F-Tp","V-A-F-","0","3.8","5",1,0,0,0,0,1,0,0,0,0
"1135","V-A+F-Ts","V-A+F-","0","3.8","20",0,0,0,0,0,1,1,0,0,0
"1136","V-A+F-T0","V-A+F-","0","3.8","20",0,0,1,0,0,1,0,0,0,0
"1137","V-A+F-Tp","V-A+F-","0","3.8","20",0,1,0,0,0,1,0,0,0,1
"1138","V-A+F-Ts","V-A+F-","0","3.8","20",0,0,1,0,0,1,0,0,0,0
"1139","V-A-F+Tp","V-A-F+","1","3.8","5",0,0,0,0,0,1,0,0,1,0
"1140","V-A-F+Ts","V-A-F+","1","3.8","5",1,0,0,0,0,1,0,0,0,0
"1141","V-A+F+Tp","V-A+F+","1","3.8","20",0,0,0,0,1,1,0,0,0,0
"1142","V-A-F-Ts","V-A-F-","0","3.8","5",1,0,0,0,0,1,0,0,0,0
"1143","V-A+F+Ts","V-A+F+","1","3.8","20",0,1,0,0,0,1,0,0,0,1
"1144","V-A+F+Ts","V-A+F+","1","3.8","20",0,0,0,0,0,1,1,0,0,0
"1145","V-A+F+T0","V-A+F+","1","3.8","20",0,0,0,1,0,1,0,0,0,0
"1146","V-A-F+T0","V-A-F+","1","3.8","5",0,0,0,1,0,1,0,0,0,0
"1147","V-A-F-Tp","V-A-F-","0","3.8","5",0,0,0,0,0,1,0,0,0,0
"1148","V-A+F+T0","V-A+F+","1","3.8","20",0,0,1,0,0,1,0,0,0,0
"1149","V-A-F-T0","V-A-F-","0","3.8","5",0,0,0,0,0,1,1,0,0,0
"1150","V-A-F-Ts","V-A-F-","0","3.8","5",0,0,0,0,0,1,0,0,0,0
"1151","V-A+F-Tp","V-A+F-","0","3.8","20",0,1,0,0,0,1,0,0,0,1
"1152","V-A+F+Tp","V-A+F+","1","3.8","20",0,1,0,0,0,1,0,0,0,1
