221YSLS-83, 6, 5
132BJSF-83, 6, 6
111YSLS-43, 5, 3
332BSSS+21, 5, 7
132RJLF-43, 4, 7
132RJLF-43, 3, 6
111BSSS+21, 5, 4
221BSSS+43, 6, 5
221BSSS+43, 4, 3
221YSLS-83, 6, 1
111BJSF+43, 5, 2
332RJLF-83, 2, 7
132BJSF-83, 6, 3
332RJLF-83, 2, 7
132BJSF+43, 5, 6
111BSSS+21, 5, 3
332BSSS+21, 5, 1
332BJSF+43, 4, 5
111YSLS-43, 5, 2
332BJSF+43, 3, 5
132YSLS-43, 6, 2
132YSLS-43, 5, 3
111BJSF+43, 5, 5
132BJSF+43, 6, 5
