221BSSS+43, 4, 2
111YSLS-43, 4, 2
221BSSS+43, 4, 2
332BJSF+43, 5, 6
111BSSS+21, 4, 2
332BJSF+43, 5, 6
132RJLF-43, 6, 6
332BSSS+21, 4, 6
132RJLF-43, 6, 5
132YSLS-43, 4, 5
132BJSF-83, 5, 5
132BJSF+43, 6, 5
332RJLF-83, 7, 6
221YSLS-83, 4, 2
132BJSF+43, 5, 3
111YSLS-43, 4, 2
332BSSS+21, 5, 6
132YSLS-43, 4, 3
111BSSS+21, 4, 2
111BJSF+43, 5, 2
332RJLF-83, 6, 5
221YSLS-83, 4, 1
111BJSF+43, 4, 1
132BJSF-83, 5, 4
