111-43, 4, 5
221+43, 3, 5
332-43, 2, 6
111+43, 4, 4
132+21, 3, 5
111+43, 3, 3
332-83, 2, 6
111-83, 4, 3
221-83, 2, 6
132-43, 3, 5
111-43, 3, 5
221+21, 4, 3
221+21, 4, 4
221-83, 2, 6
111+21, 5, 3
111+21, 6, 3
132-83, 1, 7
332+43, 6, 5
132+43, 5, 5
132+21, 4, 5
221+43, 5, 3
221-43, 3, 5
332-43, 3, 6
332-83, 2, 6
132-43, 3, 5
221-43, 4, 5
332+43, 5, 5
332+21, 4, 4
111-83, 2, 6
332+21, 4, 4
132+43, 3, 5
132-83, 2, 6
