111-43, 3, 3
221+43, 5, 5
111-83, 1, 4
111+21, 6, 5
111-43, 2, 5
132-43, 3, 7
111+43, 7, 5
132+21, 6, 6
221+21, 7, 3
132-43, 2, 6
111-83, 2, 3
332-83, 5, 7
332+43, 7, 7
332+43, 6, 7
221-43, 3, 4
332+21, 5, 6
132-83, 2, 6
132+43, 5, 6
332-43, 3, 6
221+21, 6, 5
221+43, 6, 3
111+43, 7, 1
111+21, 6, 2
132-83, 1, 7
221-83, 2, 3
332+21, 7, 6
132+43, 5, 5
332-83, 3, 6
132+21, 4, 5
332-43, 3, 5
221-43, 3, 4
221-83, 3, 5
