BSSS-43, 6, 1
BSSS+21, 6, 2
YSLS-83, 2, 1
BSSS+21, 7, 1
RJLF-43, 2, 7
RJLF-83, 2, 6
BSSS+43, 6, 2
BJSF-83, 7, 5
RJLF-83, 2, 6
BJSF-43, 5, 5
BSSS-43, 7, 1
BJSF+21, 6, 2
RJLF-43, 3, 6
BJSF+43, 7, 3
YSLS-83, 1, 2
BJSF-43, 6, 1
BJSF-83, 6, 5
BJSF+43, 7, 5
YSLS-43, 1, 1
YSLS+21, 1, 1
RJLF+21, 2, 3
BSSS+43, 7, 2
BJSF+21, 6, 2
RJLF+43, 1, 5
YSLS+21, 1, 1
RJLF+21, 2, 5
RJLF+43, 5, 6
BSSS-83, 7, 1
YSLS+43, 3, 1
BSSS-83, 7, 1
YSLS-43, 2, 1
YSLS+43, 2, 1
