132YSLS, 4, 2
332YSLS, 5, 6
332YSLS, 3, 5
111YSLS, 3, 2
111RJLF, 2, 2
132BJSF, 4, 5
132YSLS, 4, 5
221YSLS, 4, 3
221RJLF, 2, 4
221YSLS, 4, 2
111RJLF, 2, 1
132RJLF, 1, 5
111YSLS, 4, 2
132BJSF, 6, 4
111BJSF, 6, 3
332RJLF, 1, 6
132BSSS, 7, 5
221RJLF, 2, 5
332BSSS, 6, 7
332BJSF, 7, 6
132RJLF, 2, 6
332BJSF, 6, 6
332RJLF, 2, 5
111BJSF, 6, 2
132BSSS, 7, 5
221BSSS, 6, 5
332BSSS, 6, 7
221BSSS, 6, 4
111BSSS, 7, 2
221BJSF, 5, 4
221BJSF, 5, 3
111BSSS, 7, 1
