332YSLS, 5, 5
221BSSS, 3, 3
111YSLS, 2, 2
221BJSF, 2, 3
332BSSS, 6, 6
111BJSF, 3, 1
111RJLF, 4, 3
111YSLS, 2, 2
221BJSF, 5, 5
332BJSF, 6, 7
221BSSS, 2, 1
132RJLF, 6, 6
132BJSF, 6, 6
111BJSF, 3, 1
332YSLS, 5, 5
132RJLF, 5, 5
332RJLF, 5, 7
132YSLS, 5, 6
132BSSS, 6, 7
332BJSF, 7, 6
332BSSS, 7, 6
132BSSS, 7, 5
332RJLF, 6, 7
111RJLF, 3, 5
132YSLS, 5, 6
111BSSS, 2, 5
221YSLS, 2, 2
221RJLF, 5, 6
132BJSF, 6, 7
221YSLS, 1, 1
221RJLF, 5, 2
111BSSS, 3, 1
